%YAML 1.1
%TAG !u! tag:unity3d.com,2011:
--- !u!1 &100166
GameObject:
  m_ObjectHideFlags: 1
  m_PrefabParentObject: {fileID: 0}
  m_PrefabInternal: {fileID: 100100000}
  serializedVersion: 4
  m_Component:
  - 4: {fileID: 413502}
  m_Layer: 9
  m_Name: L_ring1
  m_TagString: Untagged
  m_Icon: {fileID: 0}
  m_NavMeshLayer: 0
  m_StaticEditorFlags: 0
  m_IsActive: 1
--- !u!1 &100708
GameObject:
  m_ObjectHideFlags: 1
  m_PrefabParentObject: {fileID: 0}
  m_PrefabInternal: {fileID: 100100000}
  serializedVersion: 4
  m_Component:
  - 4: {fileID: 438506}
  m_Layer: 9
  m_Name: R_middle1
  m_TagString: Untagged
  m_Icon: {fileID: 0}
  m_NavMeshLayer: 0
  m_StaticEditorFlags: 0
  m_IsActive: 1
--- !u!1 &102136
GameObject:
  m_ObjectHideFlags: 1
  m_PrefabParentObject: {fileID: 0}
  m_PrefabInternal: {fileID: 100100000}
  serializedVersion: 4
  m_Component:
  - 4: {fileID: 456058}
  - 136: {fileID: 13652300}
  m_Layer: 9
  m_Name: L_knee
  m_TagString: Untagged
  m_Icon: {fileID: 0}
  m_NavMeshLayer: 0
  m_StaticEditorFlags: 0
  m_IsActive: 1
--- !u!1 &103608
GameObject:
  m_ObjectHideFlags: 1
  m_PrefabParentObject: {fileID: 0}
  m_PrefabInternal: {fileID: 100100000}
  serializedVersion: 4
  m_Component:
  - 4: {fileID: 459826}
  - 136: {fileID: 13621896}
  m_Layer: 9
  m_Name: R_knee
  m_TagString: Untagged
  m_Icon: {fileID: 0}
  m_NavMeshLayer: 0
  m_StaticEditorFlags: 0
  m_IsActive: 1
--- !u!1 &104618
GameObject:
  m_ObjectHideFlags: 1
  m_PrefabParentObject: {fileID: 0}
  m_PrefabInternal: {fileID: 100100000}
  serializedVersion: 4
  m_Component:
  - 4: {fileID: 431842}
  m_Layer: 9
  m_Name: R_thumb2
  m_TagString: Untagged
  m_Icon: {fileID: 0}
  m_NavMeshLayer: 0
  m_StaticEditorFlags: 0
  m_IsActive: 1
--- !u!1 &104682
GameObject:
  m_ObjectHideFlags: 1
  m_PrefabParentObject: {fileID: 0}
  m_PrefabInternal: {fileID: 100100000}
  serializedVersion: 4
  m_Component:
  - 4: {fileID: 499044}
  m_Layer: 9
  m_Name: R_point3
  m_TagString: Untagged
  m_Icon: {fileID: 0}
  m_NavMeshLayer: 0
  m_StaticEditorFlags: 0
  m_IsActive: 1
--- !u!1 &106976
GameObject:
  m_ObjectHideFlags: 1
  m_PrefabParentObject: {fileID: 0}
  m_PrefabInternal: {fileID: 100100000}
  serializedVersion: 4
  m_Component:
  - 4: {fileID: 471546}
  m_Layer: 9
  m_Name: R_pink3
  m_TagString: Untagged
  m_Icon: {fileID: 0}
  m_NavMeshLayer: 0
  m_StaticEditorFlags: 0
  m_IsActive: 1
--- !u!1 &107000
GameObject:
  m_ObjectHideFlags: 1
  m_PrefabParentObject: {fileID: 0}
  m_PrefabInternal: {fileID: 100100000}
  serializedVersion: 4
  m_Component:
  - 4: {fileID: 484488}
  m_Layer: 9
  m_Name: Joint_3_9
  m_TagString: Untagged
  m_Icon: {fileID: 0}
  m_NavMeshLayer: 0
  m_StaticEditorFlags: 0
  m_IsActive: 1
--- !u!1 &107924
GameObject:
  m_ObjectHideFlags: 0
  m_PrefabParentObject: {fileID: 0}
  m_PrefabInternal: {fileID: 100100000}
  serializedVersion: 4
  m_Component:
  - 4: {fileID: 443614}
  m_Layer: 0
  m_Name: LordPrefab
  m_TagString: Untagged
  m_Icon: {fileID: 0}
  m_NavMeshLayer: 0
  m_StaticEditorFlags: 0
  m_IsActive: 1
--- !u!1 &111224
GameObject:
  m_ObjectHideFlags: 1
  m_PrefabParentObject: {fileID: 0}
  m_PrefabInternal: {fileID: 100100000}
  serializedVersion: 4
  m_Component:
  - 4: {fileID: 415596}
  - 137: {fileID: 13741612}
  - 183: {fileID: 18374002}
  m_Layer: 9
  m_Name: cloth
  m_TagString: Untagged
  m_Icon: {fileID: 0}
  m_NavMeshLayer: 0
  m_StaticEditorFlags: 0
  m_IsActive: 1
--- !u!1 &114660
GameObject:
  m_ObjectHideFlags: 1
  m_PrefabParentObject: {fileID: 0}
  m_PrefabInternal: {fileID: 100100000}
  serializedVersion: 4
  m_Component:
  - 4: {fileID: 436268}
  m_Layer: 0
  m_Name: target
  m_TagString: Untagged
  m_Icon: {fileID: 0}
  m_NavMeshLayer: 0
  m_StaticEditorFlags: 0
  m_IsActive: 1
--- !u!1 &118188
GameObject:
  m_ObjectHideFlags: 1
  m_PrefabParentObject: {fileID: 0}
  m_PrefabInternal: {fileID: 100100000}
  serializedVersion: 4
  m_Component:
  - 4: {fileID: 460936}
  m_Layer: 9
  m_Name: Joint_3_5
  m_TagString: Untagged
  m_Icon: {fileID: 0}
  m_NavMeshLayer: 0
  m_StaticEditorFlags: 0
  m_IsActive: 1
--- !u!1 &121164
GameObject:
  m_ObjectHideFlags: 1
  m_PrefabParentObject: {fileID: 0}
  m_PrefabInternal: {fileID: 100100000}
  serializedVersion: 4
  m_Component:
  - 4: {fileID: 408296}
  - 33: {fileID: 3361550}
  - 23: {fileID: 2333622}
  m_Layer: 9
  m_Name: shield_1
  m_TagString: Untagged
  m_Icon: {fileID: 0}
  m_NavMeshLayer: 0
  m_StaticEditorFlags: 0
  m_IsActive: 1
--- !u!1 &121282
GameObject:
  m_ObjectHideFlags: 1
  m_PrefabParentObject: {fileID: 0}
  m_PrefabInternal: {fileID: 100100000}
  serializedVersion: 4
  m_Component:
  - 4: {fileID: 451308}
  m_Layer: 9
  m_Name: R_thumb1
  m_TagString: Untagged
  m_Icon: {fileID: 0}
  m_NavMeshLayer: 0
  m_StaticEditorFlags: 0
  m_IsActive: 1
--- !u!1 &121352
GameObject:
  m_ObjectHideFlags: 1
  m_PrefabParentObject: {fileID: 0}
  m_PrefabInternal: {fileID: 100100000}
  serializedVersion: 4
  m_Component:
  - 4: {fileID: 472348}
  m_Layer: 9
  m_Name: R_toes
  m_TagString: Untagged
  m_Icon: {fileID: 0}
  m_NavMeshLayer: 0
  m_StaticEditorFlags: 0
  m_IsActive: 1
--- !u!1 &123488
GameObject:
  m_ObjectHideFlags: 1
  m_PrefabParentObject: {fileID: 0}
  m_PrefabInternal: {fileID: 100100000}
  serializedVersion: 4
  m_Component:
  - 4: {fileID: 408386}
  m_Layer: 9
  m_Name: R_ankle
  m_TagString: Untagged
  m_Icon: {fileID: 0}
  m_NavMeshLayer: 0
  m_StaticEditorFlags: 0
  m_IsActive: 1
--- !u!1 &127338
GameObject:
  m_ObjectHideFlags: 1
  m_PrefabParentObject: {fileID: 0}
  m_PrefabInternal: {fileID: 100100000}
  serializedVersion: 4
  m_Component:
  - 4: {fileID: 435448}
  m_Layer: 9
  m_Name: Joint_3_2
  m_TagString: Untagged
  m_Icon: {fileID: 0}
  m_NavMeshLayer: 0
  m_StaticEditorFlags: 0
  m_IsActive: 1
--- !u!1 &127370
GameObject:
  m_ObjectHideFlags: 1
  m_PrefabParentObject: {fileID: 0}
  m_PrefabInternal: {fileID: 100100000}
  serializedVersion: 4
  m_Component:
  - 4: {fileID: 434086}
  m_Layer: 9
  m_Name: L_arm
  m_TagString: Untagged
  m_Icon: {fileID: 0}
  m_NavMeshLayer: 0
  m_StaticEditorFlags: 0
  m_IsActive: 1
--- !u!1 &127392
GameObject:
  m_ObjectHideFlags: 1
  m_PrefabParentObject: {fileID: 0}
  m_PrefabInternal: {fileID: 100100000}
  serializedVersion: 4
  m_Component:
  - 4: {fileID: 474390}
  m_Layer: 9
  m_Name: L_middle1
  m_TagString: Untagged
  m_Icon: {fileID: 0}
  m_NavMeshLayer: 0
  m_StaticEditorFlags: 0
  m_IsActive: 1
--- !u!1 &128280
GameObject:
  m_ObjectHideFlags: 1
  m_PrefabParentObject: {fileID: 0}
  m_PrefabInternal: {fileID: 100100000}
  serializedVersion: 4
  m_Component:
  - 4: {fileID: 442324}
  m_Layer: 9
  m_Name: R_arm
  m_TagString: Untagged
  m_Icon: {fileID: 0}
  m_NavMeshLayer: 0
  m_StaticEditorFlags: 0
  m_IsActive: 1
--- !u!1 &130092
GameObject:
  m_ObjectHideFlags: 1
  m_PrefabParentObject: {fileID: 0}
  m_PrefabInternal: {fileID: 100100000}
  serializedVersion: 4
  m_Component:
  - 4: {fileID: 412744}
  m_Layer: 9
  m_Name: Joint_3_10
  m_TagString: Untagged
  m_Icon: {fileID: 0}
  m_NavMeshLayer: 0
  m_StaticEditorFlags: 0
  m_IsActive: 1
--- !u!1 &131414
GameObject:
  m_ObjectHideFlags: 1
  m_PrefabParentObject: {fileID: 0}
  m_PrefabInternal: {fileID: 100100000}
  serializedVersion: 4
  m_Component:
  - 4: {fileID: 402708}
  m_Layer: 9
  m_Name: neck
  m_TagString: Untagged
  m_Icon: {fileID: 0}
  m_NavMeshLayer: 0
  m_StaticEditorFlags: 0
  m_IsActive: 1
--- !u!1 &134626
GameObject:
  m_ObjectHideFlags: 1
  m_PrefabParentObject: {fileID: 0}
  m_PrefabInternal: {fileID: 100100000}
  serializedVersion: 4
  m_Component:
  - 4: {fileID: 494748}
  m_Layer: 9
  m_Name: L_thumb2
  m_TagString: Untagged
  m_Icon: {fileID: 0}
  m_NavMeshLayer: 0
  m_StaticEditorFlags: 0
  m_IsActive: 1
--- !u!1 &136654
GameObject:
  m_ObjectHideFlags: 1
  m_PrefabParentObject: {fileID: 0}
  m_PrefabInternal: {fileID: 100100000}
  serializedVersion: 4
  m_Component:
  - 4: {fileID: 437082}
  m_Layer: 9
  m_Name: R_ring3
  m_TagString: Untagged
  m_Icon: {fileID: 0}
  m_NavMeshLayer: 0
  m_StaticEditorFlags: 0
  m_IsActive: 1
--- !u!1 &137030
GameObject:
  m_ObjectHideFlags: 1
  m_PrefabParentObject: {fileID: 0}
  m_PrefabInternal: {fileID: 100100000}
  serializedVersion: 4
  m_Component:
  - 4: {fileID: 485828}
  m_Layer: 9
  m_Name: R_wrist
  m_TagString: Untagged
  m_Icon: {fileID: 0}
  m_NavMeshLayer: 0
  m_StaticEditorFlags: 0
  m_IsActive: 1
--- !u!1 &138540
GameObject:
  m_ObjectHideFlags: 1
  m_PrefabParentObject: {fileID: 0}
  m_PrefabInternal: {fileID: 100100000}
  serializedVersion: 4
  m_Component:
  - 4: {fileID: 457040}
  m_Layer: 9
  m_Name: Joint_3_8
  m_TagString: Untagged
  m_Icon: {fileID: 0}
  m_NavMeshLayer: 0
  m_StaticEditorFlags: 0
  m_IsActive: 1
--- !u!1 &138940
GameObject:
  m_ObjectHideFlags: 1
  m_PrefabParentObject: {fileID: 0}
  m_PrefabInternal: {fileID: 100100000}
  serializedVersion: 4
  m_Component:
  - 4: {fileID: 487456}
  m_Layer: 9
  m_Name: R_middle2
  m_TagString: Untagged
  m_Icon: {fileID: 0}
  m_NavMeshLayer: 0
  m_StaticEditorFlags: 0
  m_IsActive: 1
--- !u!1 &141680
GameObject:
  m_ObjectHideFlags: 1
  m_PrefabParentObject: {fileID: 0}
  m_PrefabInternal: {fileID: 100100000}
  serializedVersion: 4
  m_Component:
  - 4: {fileID: 480936}
  m_Layer: 9
  m_Name: L_thumb3
  m_TagString: Untagged
  m_Icon: {fileID: 0}
  m_NavMeshLayer: 0
  m_StaticEditorFlags: 0
  m_IsActive: 1
--- !u!1 &142064
GameObject:
  m_ObjectHideFlags: 1
  m_PrefabParentObject: {fileID: 0}
  m_PrefabInternal: {fileID: 100100000}
  serializedVersion: 4
  m_Component:
  - 4: {fileID: 496814}
  m_Layer: 9
  m_Name: L_pink2
  m_TagString: Untagged
  m_Icon: {fileID: 0}
  m_NavMeshLayer: 0
  m_StaticEditorFlags: 0
  m_IsActive: 1
--- !u!1 &144118
GameObject:
  m_ObjectHideFlags: 1
  m_PrefabParentObject: {fileID: 0}
  m_PrefabInternal: {fileID: 100100000}
  serializedVersion: 4
  m_Component:
  - 4: {fileID: 455306}
  m_Layer: 9
  m_Name: L_pink3
  m_TagString: Untagged
  m_Icon: {fileID: 0}
  m_NavMeshLayer: 0
  m_StaticEditorFlags: 0
  m_IsActive: 1
--- !u!1 &146350
GameObject:
  m_ObjectHideFlags: 1
  m_PrefabParentObject: {fileID: 0}
  m_PrefabInternal: {fileID: 100100000}
  serializedVersion: 4
  m_Component:
  - 4: {fileID: 481744}
  m_Layer: 9
  m_Name: Joint_3_4
  m_TagString: Untagged
  m_Icon: {fileID: 0}
  m_NavMeshLayer: 0
  m_StaticEditorFlags: 0
  m_IsActive: 1
--- !u!1 &147316
GameObject:
  m_ObjectHideFlags: 1
  m_PrefabParentObject: {fileID: 0}
  m_PrefabInternal: {fileID: 100100000}
  serializedVersion: 4
  m_Component:
  - 4: {fileID: 451868}
  m_Layer: 9
  m_Name: L_middle3
  m_TagString: Untagged
  m_Icon: {fileID: 0}
  m_NavMeshLayer: 0
  m_StaticEditorFlags: 0
  m_IsActive: 1
--- !u!1 &147934
GameObject:
  m_ObjectHideFlags: 1
  m_PrefabParentObject: {fileID: 0}
  m_PrefabInternal: {fileID: 100100000}
  serializedVersion: 4
  m_Component:
  - 4: {fileID: 430092}
  m_Layer: 9
  m_Name: L_toes
  m_TagString: Untagged
  m_Icon: {fileID: 0}
  m_NavMeshLayer: 0
  m_StaticEditorFlags: 0
  m_IsActive: 1
--- !u!1 &148272
GameObject:
  m_ObjectHideFlags: 1
  m_PrefabParentObject: {fileID: 0}
  m_PrefabInternal: {fileID: 100100000}
  serializedVersion: 4
  m_Component:
  - 4: {fileID: 429292}
  m_Layer: 9
  m_Name: R_shoulder
  m_TagString: Untagged
  m_Icon: {fileID: 0}
  m_NavMeshLayer: 0
  m_StaticEditorFlags: 0
  m_IsActive: 1
--- !u!1 &148954
GameObject:
  m_ObjectHideFlags: 1
  m_PrefabParentObject: {fileID: 0}
  m_PrefabInternal: {fileID: 100100000}
  serializedVersion: 4
  m_Component:
  - 4: {fileID: 466546}
  m_Layer: 9
  m_Name: Joint_3_7
  m_TagString: Untagged
  m_Icon: {fileID: 0}
  m_NavMeshLayer: 0
  m_StaticEditorFlags: 0
  m_IsActive: 1
--- !u!1 &149738
GameObject:
  m_ObjectHideFlags: 1
  m_PrefabParentObject: {fileID: 0}
  m_PrefabInternal: {fileID: 100100000}
  serializedVersion: 4
  m_Component:
  - 4: {fileID: 447440}
  m_Layer: 9
  m_Name: head
  m_TagString: Untagged
  m_Icon: {fileID: 0}
  m_NavMeshLayer: 0
  m_StaticEditorFlags: 0
  m_IsActive: 1
--- !u!1 &150384
GameObject:
  m_ObjectHideFlags: 1
  m_PrefabParentObject: {fileID: 0}
  m_PrefabInternal: {fileID: 100100000}
  serializedVersion: 4
  m_Component:
  - 4: {fileID: 443774}
  m_Layer: 9
  m_Name: L_ring2
  m_TagString: Untagged
  m_Icon: {fileID: 0}
  m_NavMeshLayer: 0
  m_StaticEditorFlags: 0
  m_IsActive: 1
--- !u!1 &151210
GameObject:
  m_ObjectHideFlags: 1
  m_PrefabParentObject: {fileID: 0}
  m_PrefabInternal: {fileID: 100100000}
  serializedVersion: 4
  m_Component:
  - 4: {fileID: 476438}
  - 136: {fileID: 13649578}
  m_Layer: 9
  m_Name: R_leg
  m_TagString: Untagged
  m_Icon: {fileID: 0}
  m_NavMeshLayer: 0
  m_StaticEditorFlags: 0
  m_IsActive: 1
--- !u!1 &152104
GameObject:
  m_ObjectHideFlags: 1
  m_PrefabParentObject: {fileID: 0}
  m_PrefabInternal: {fileID: 100100000}
  serializedVersion: 4
  m_Component:
  - 4: {fileID: 495050}
  m_Layer: 9
  m_Name: L_shoulder
  m_TagString: Untagged
  m_Icon: {fileID: 0}
  m_NavMeshLayer: 0
  m_StaticEditorFlags: 0
  m_IsActive: 1
--- !u!1 &156580
GameObject:
  m_ObjectHideFlags: 1
  m_PrefabParentObject: {fileID: 0}
  m_PrefabInternal: {fileID: 100100000}
  serializedVersion: 4
  m_Component:
  - 4: {fileID: 467082}
  m_Layer: 9
  m_Name: L_ring3
  m_TagString: Untagged
  m_Icon: {fileID: 0}
  m_NavMeshLayer: 0
  m_StaticEditorFlags: 0
  m_IsActive: 1
--- !u!1 &158250
GameObject:
  m_ObjectHideFlags: 1
  m_PrefabParentObject: {fileID: 0}
  m_PrefabInternal: {fileID: 100100000}
  serializedVersion: 4
  m_Component:
  - 4: {fileID: 433524}
  m_Layer: 9
  m_Name: R_pink2
  m_TagString: Untagged
  m_Icon: {fileID: 0}
  m_NavMeshLayer: 0
  m_StaticEditorFlags: 0
  m_IsActive: 1
--- !u!1 &160470
GameObject:
  m_ObjectHideFlags: 1
  m_PrefabParentObject: {fileID: 0}
  m_PrefabInternal: {fileID: 100100000}
  serializedVersion: 4
  m_Component:
  - 4: {fileID: 411176}
  m_Layer: 9
  m_Name: L_point3
  m_TagString: Untagged
  m_Icon: {fileID: 0}
  m_NavMeshLayer: 0
  m_StaticEditorFlags: 0
  m_IsActive: 1
--- !u!1 &160798
GameObject:
  m_ObjectHideFlags: 1
  m_PrefabParentObject: {fileID: 0}
  m_PrefabInternal: {fileID: 100100000}
  serializedVersion: 4
  m_Component:
  - 4: {fileID: 469038}
  m_Layer: 9
  m_Name: R_point2
  m_TagString: Untagged
  m_Icon: {fileID: 0}
  m_NavMeshLayer: 0
  m_StaticEditorFlags: 0
  m_IsActive: 1
--- !u!1 &161746
GameObject:
  m_ObjectHideFlags: 1
  m_PrefabParentObject: {fileID: 0}
  m_PrefabInternal: {fileID: 100100000}
  serializedVersion: 4
  m_Component:
  - 4: {fileID: 447070}
  m_Layer: 9
  m_Name: rayfirer
  m_TagString: Untagged
  m_Icon: {fileID: 0}
  m_NavMeshLayer: 0
  m_StaticEditorFlags: 0
  m_IsActive: 1
--- !u!1 &162762
GameObject:
  m_ObjectHideFlags: 1
  m_PrefabParentObject: {fileID: 0}
  m_PrefabInternal: {fileID: 100100000}
  serializedVersion: 4
  m_Component:
  - 4: {fileID: 483224}
  m_Layer: 9
  m_Name: L_pink1
  m_TagString: Untagged
  m_Icon: {fileID: 0}
  m_NavMeshLayer: 0
  m_StaticEditorFlags: 0
  m_IsActive: 1
--- !u!1 &164468
GameObject:
  m_ObjectHideFlags: 1
  m_PrefabParentObject: {fileID: 0}
  m_PrefabInternal: {fileID: 100100000}
  serializedVersion: 4
  m_Component:
  - 4: {fileID: 429676}
  m_Layer: 9
  m_Name: chestholdersword
  m_TagString: Untagged
  m_Icon: {fileID: 0}
  m_NavMeshLayer: 0
  m_StaticEditorFlags: 0
  m_IsActive: 1
--- !u!1 &164778
GameObject:
  m_ObjectHideFlags: 1
  m_PrefabParentObject: {fileID: 0}
  m_PrefabInternal: {fileID: 100100000}
  serializedVersion: 4
  m_Component:
  - 4: {fileID: 499850}
  m_Layer: 9
  m_Name: R_elbow
  m_TagString: Untagged
  m_Icon: {fileID: 0}
  m_NavMeshLayer: 0
  m_StaticEditorFlags: 0
  m_IsActive: 1
--- !u!1 &166226
GameObject:
  m_ObjectHideFlags: 1
  m_PrefabParentObject: {fileID: 0}
  m_PrefabInternal: {fileID: 100100000}
  serializedVersion: 4
  m_Component:
  - 4: {fileID: 434580}
  - 54: {fileID: 5442724}
  - 136: {fileID: 13625172}
  - 82: {fileID: 8202356}
  - 114: {fileID: 11481770}
  m_Layer: 2
  m_Name: R_foot
  m_TagString: Untagged
  m_Icon: {fileID: 0}
  m_NavMeshLayer: 0
  m_StaticEditorFlags: 0
  m_IsActive: 1
--- !u!1 &169280
GameObject:
  m_ObjectHideFlags: 1
  m_PrefabParentObject: {fileID: 0}
  m_PrefabInternal: {fileID: 100100000}
  serializedVersion: 4
  m_Component:
  - 4: {fileID: 498846}
  m_Layer: 9
  m_Name: spine
  m_TagString: Untagged
  m_Icon: {fileID: 0}
  m_NavMeshLayer: 0
  m_StaticEditorFlags: 0
  m_IsActive: 1
--- !u!1 &170242
GameObject:
  m_ObjectHideFlags: 1
  m_PrefabParentObject: {fileID: 0}
  m_PrefabInternal: {fileID: 100100000}
  serializedVersion: 4
  m_Component:
  - 4: {fileID: 420738}
  m_Layer: 9
  m_Name: chest
  m_TagString: Untagged
  m_Icon: {fileID: 0}
  m_NavMeshLayer: 0
  m_StaticEditorFlags: 0
  m_IsActive: 1
--- !u!1 &172270
GameObject:
  m_ObjectHideFlags: 1
  m_PrefabParentObject: {fileID: 0}
  m_PrefabInternal: {fileID: 100100000}
  serializedVersion: 4
  m_Component:
  - 4: {fileID: 497924}
  - 33: {fileID: 3322846}
  - 23: {fileID: 2361116}
  - 54: {fileID: 5415990}
  - 64: {fileID: 6434484}
  - 114: {fileID: 11457358}
  m_Layer: 2
  m_Name: sword
  m_TagString: Untagged
  m_Icon: {fileID: 0}
  m_NavMeshLayer: 0
  m_StaticEditorFlags: 0
  m_IsActive: 1
--- !u!1 &172632
GameObject:
  m_ObjectHideFlags: 1
  m_PrefabParentObject: {fileID: 0}
  m_PrefabInternal: {fileID: 100100000}
  serializedVersion: 4
  m_Component:
  - 4: {fileID: 406840}
  m_Layer: 9
  m_Name: RhandPosition
  m_TagString: Untagged
  m_Icon: {fileID: 0}
  m_NavMeshLayer: 0
  m_StaticEditorFlags: 0
  m_IsActive: 1
--- !u!1 &172880
GameObject:
  m_ObjectHideFlags: 1
  m_PrefabParentObject: {fileID: 0}
  m_PrefabInternal: {fileID: 100100000}
  serializedVersion: 4
  m_Component:
  - 4: {fileID: 469912}
  m_Layer: 9
  m_Name: tip
  m_TagString: Untagged
  m_Icon: {fileID: 0}
  m_NavMeshLayer: 0
  m_StaticEditorFlags: 0
  m_IsActive: 1
--- !u!1 &172996
GameObject:
  m_ObjectHideFlags: 1
  m_PrefabParentObject: {fileID: 0}
  m_PrefabInternal: {fileID: 100100000}
  serializedVersion: 4
  m_Component:
  - 4: {fileID: 470404}
  m_Layer: 9
  m_Name: R_pink1
  m_TagString: Untagged
  m_Icon: {fileID: 0}
  m_NavMeshLayer: 0
  m_StaticEditorFlags: 0
  m_IsActive: 1
--- !u!1 &174716
GameObject:
  m_ObjectHideFlags: 1
  m_PrefabParentObject: {fileID: 0}
  m_PrefabInternal: {fileID: 100100000}
  serializedVersion: 4
  m_Component:
  - 4: {fileID: 422108}
  m_Layer: 9
  m_Name: Joint_3_3
  m_TagString: Untagged
  m_Icon: {fileID: 0}
  m_NavMeshLayer: 0
  m_StaticEditorFlags: 0
  m_IsActive: 1
--- !u!1 &176084
GameObject:
  m_ObjectHideFlags: 1
  m_PrefabParentObject: {fileID: 0}
  m_PrefabInternal: {fileID: 100100000}
  serializedVersion: 4
  m_Component:
  - 4: {fileID: 489758}
  m_Layer: 9
  m_Name: Joint_3
  m_TagString: Untagged
  m_Icon: {fileID: 0}
  m_NavMeshLayer: 0
  m_StaticEditorFlags: 0
  m_IsActive: 1
--- !u!1 &180956
GameObject:
  m_ObjectHideFlags: 1
  m_PrefabParentObject: {fileID: 0}
  m_PrefabInternal: {fileID: 100100000}
  serializedVersion: 4
  m_Component:
  - 4: {fileID: 468936}
  - 137: {fileID: 13771556}
  m_Layer: 9
  m_Name: mesh_1
  m_TagString: Untagged
  m_Icon: {fileID: 0}
  m_NavMeshLayer: 0
  m_StaticEditorFlags: 0
  m_IsActive: 1
--- !u!1 &181568
GameObject:
  m_ObjectHideFlags: 1
  m_PrefabParentObject: {fileID: 0}
  m_PrefabInternal: {fileID: 100100000}
  serializedVersion: 4
  m_Component:
  - 4: {fileID: 497458}
  m_Layer: 9
  m_Name: L_elbow
  m_TagString: Untagged
  m_Icon: {fileID: 0}
  m_NavMeshLayer: 0
  m_StaticEditorFlags: 0
  m_IsActive: 1
--- !u!1 &186380
GameObject:
  m_ObjectHideFlags: 0
  m_PrefabParentObject: {fileID: 0}
  m_PrefabInternal: {fileID: 100100000}
  serializedVersion: 4
  m_Component:
  - 4: {fileID: 484822}
  - 95: {fileID: 9517152}
  - 143: {fileID: 14368950}
  - 82: {fileID: 8227220}
  - 114: {fileID: 11434040}
  - 82: {fileID: 8249110}
  - 114: {fileID: 11450856}
  m_Layer: 9
  m_Name: overlord
  m_TagString: Player
  m_Icon: {fileID: 0}
  m_NavMeshLayer: 0
  m_StaticEditorFlags: 0
  m_IsActive: 1
--- !u!1 &187010
GameObject:
  m_ObjectHideFlags: 1
  m_PrefabParentObject: {fileID: 0}
  m_PrefabInternal: {fileID: 100100000}
  serializedVersion: 4
  m_Component:
  - 4: {fileID: 412562}
  m_Layer: 9
  m_Name: LhandPosition
  m_TagString: Untagged
  m_Icon: {fileID: 0}
  m_NavMeshLayer: 0
  m_StaticEditorFlags: 0
  m_IsActive: 1
--- !u!1 &187574
GameObject:
  m_ObjectHideFlags: 1
  m_PrefabParentObject: {fileID: 0}
  m_PrefabInternal: {fileID: 100100000}
  serializedVersion: 4
  m_Component:
  - 4: {fileID: 476416}
  m_Layer: 9
  m_Name: R_ring2
  m_TagString: Untagged
  m_Icon: {fileID: 0}
  m_NavMeshLayer: 0
  m_StaticEditorFlags: 0
  m_IsActive: 1
--- !u!1 &188260
GameObject:
  m_ObjectHideFlags: 1
  m_PrefabParentObject: {fileID: 0}
  m_PrefabInternal: {fileID: 100100000}
  serializedVersion: 4
  m_Component:
  - 4: {fileID: 450336}
  m_Layer: 9
  m_Name: R_thumb3
  m_TagString: Untagged
  m_Icon: {fileID: 0}
  m_NavMeshLayer: 0
  m_StaticEditorFlags: 0
  m_IsActive: 1
--- !u!1 &189016
GameObject:
  m_ObjectHideFlags: 1
  m_PrefabParentObject: {fileID: 0}
  m_PrefabInternal: {fileID: 100100000}
  serializedVersion: 4
  m_Component:
  - 4: {fileID: 405418}
  m_Layer: 9
  m_Name: R_ring1
  m_TagString: Untagged
  m_Icon: {fileID: 0}
  m_NavMeshLayer: 0
  m_StaticEditorFlags: 0
  m_IsActive: 1
--- !u!1 &189158
GameObject:
  m_ObjectHideFlags: 1
  m_PrefabParentObject: {fileID: 0}
  m_PrefabInternal: {fileID: 100100000}
  serializedVersion: 4
  m_Component:
  - 4: {fileID: 439224}
  m_Layer: 9
  m_Name: L_point1
  m_TagString: Untagged
  m_Icon: {fileID: 0}
  m_NavMeshLayer: 0
  m_StaticEditorFlags: 0
  m_IsActive: 1
--- !u!1 &189542
GameObject:
  m_ObjectHideFlags: 1
  m_PrefabParentObject: {fileID: 0}
  m_PrefabInternal: {fileID: 100100000}
  serializedVersion: 4
  m_Component:
  - 4: {fileID: 428174}
  - 136: {fileID: 13642192}
  m_Layer: 9
  m_Name: hips
  m_TagString: Untagged
  m_Icon: {fileID: 0}
  m_NavMeshLayer: 0
  m_StaticEditorFlags: 0
  m_IsActive: 1
--- !u!1 &190922
GameObject:
  m_ObjectHideFlags: 1
  m_PrefabParentObject: {fileID: 0}
  m_PrefabInternal: {fileID: 100100000}
  serializedVersion: 4
  m_Component:
  - 4: {fileID: 435042}
  m_Layer: 9
  m_Name: chestholder
  m_TagString: Untagged
  m_Icon: {fileID: 0}
  m_NavMeshLayer: 0
  m_StaticEditorFlags: 0
  m_IsActive: 1
--- !u!1 &191632
GameObject:
  m_ObjectHideFlags: 1
  m_PrefabParentObject: {fileID: 0}
  m_PrefabInternal: {fileID: 100100000}
  serializedVersion: 4
  m_Component:
  - 4: {fileID: 420140}
  m_Layer: 9
  m_Name: R_middle3
  m_TagString: Untagged
  m_Icon: {fileID: 0}
  m_NavMeshLayer: 0
  m_StaticEditorFlags: 0
  m_IsActive: 1
--- !u!1 &192652
GameObject:
  m_ObjectHideFlags: 1
  m_PrefabParentObject: {fileID: 0}
  m_PrefabInternal: {fileID: 100100000}
  serializedVersion: 4
  m_Component:
  - 4: {fileID: 485878}
  m_Layer: 9
  m_Name: L_thumb1
  m_TagString: Untagged
  m_Icon: {fileID: 0}
  m_NavMeshLayer: 0
  m_StaticEditorFlags: 0
  m_IsActive: 1
--- !u!1 &192664
GameObject:
  m_ObjectHideFlags: 1
  m_PrefabParentObject: {fileID: 0}
  m_PrefabInternal: {fileID: 100100000}
  serializedVersion: 4
  m_Component:
  - 4: {fileID: 467778}
  m_Layer: 9
  m_Name: L_ankle
  m_TagString: Untagged
  m_Icon: {fileID: 0}
  m_NavMeshLayer: 0
  m_StaticEditorFlags: 0
  m_IsActive: 1
--- !u!1 &193804
GameObject:
  m_ObjectHideFlags: 0
  m_PrefabParentObject: {fileID: 0}
  m_PrefabInternal: {fileID: 100100000}
  serializedVersion: 4
  m_Component:
  - 4: {fileID: 402902}
  - 20: {fileID: 2042606}
  - 92: {fileID: 9245972}
  - 124: {fileID: 12453432}
  - 81: {fileID: 8192120}
  - 114: {fileID: 11434198}
  m_Layer: 0
  m_Name: Main Camera
  m_TagString: MainCamera
  m_Icon: {fileID: 0}
  m_NavMeshLayer: 0
  m_StaticEditorFlags: 0
  m_IsActive: 1
--- !u!1 &196590
GameObject:
  m_ObjectHideFlags: 1
  m_PrefabParentObject: {fileID: 0}
  m_PrefabInternal: {fileID: 100100000}
  serializedVersion: 4
  m_Component:
  - 4: {fileID: 403798}
  m_Layer: 9
  m_Name: R_point1
  m_TagString: Untagged
  m_Icon: {fileID: 0}
  m_NavMeshLayer: 0
  m_StaticEditorFlags: 0
  m_IsActive: 1
--- !u!1 &197738
GameObject:
  m_ObjectHideFlags: 1
  m_PrefabParentObject: {fileID: 0}
  m_PrefabInternal: {fileID: 100100000}
  serializedVersion: 4
  m_Component:
  - 4: {fileID: 463988}
  - 54: {fileID: 5438128}
  - 136: {fileID: 13617144}
  - 82: {fileID: 8239016}
  - 114: {fileID: 11443344}
  m_Layer: 2
  m_Name: L_foot
  m_TagString: Untagged
  m_Icon: {fileID: 0}
  m_NavMeshLayer: 0
  m_StaticEditorFlags: 0
  m_IsActive: 1
--- !u!1 &198146
GameObject:
  m_ObjectHideFlags: 1
  m_PrefabParentObject: {fileID: 0}
  m_PrefabInternal: {fileID: 100100000}
  serializedVersion: 4
  m_Component:
  - 4: {fileID: 416470}
  m_Layer: 9
  m_Name: L_wrist
  m_TagString: Untagged
  m_Icon: {fileID: 0}
  m_NavMeshLayer: 0
  m_StaticEditorFlags: 0
  m_IsActive: 1
--- !u!1 &199124
GameObject:
  m_ObjectHideFlags: 1
  m_PrefabParentObject: {fileID: 0}
  m_PrefabInternal: {fileID: 100100000}
  serializedVersion: 4
  m_Component:
  - 4: {fileID: 411024}
  - 136: {fileID: 13601080}
  m_Layer: 9
  m_Name: L_leg
  m_TagString: Untagged
  m_Icon: {fileID: 0}
  m_NavMeshLayer: 0
  m_StaticEditorFlags: 0
  m_IsActive: 1
--- !u!1 &199256
GameObject:
  m_ObjectHideFlags: 1
  m_PrefabParentObject: {fileID: 0}
  m_PrefabInternal: {fileID: 100100000}
  serializedVersion: 4
  m_Component:
  - 4: {fileID: 493768}
  m_Layer: 9
  m_Name: L_middle2
  m_TagString: Untagged
  m_Icon: {fileID: 0}
  m_NavMeshLayer: 0
  m_StaticEditorFlags: 0
  m_IsActive: 1
--- !u!1 &199802
GameObject:
  m_ObjectHideFlags: 1
  m_PrefabParentObject: {fileID: 0}
  m_PrefabInternal: {fileID: 100100000}
  serializedVersion: 4
  m_Component:
  - 4: {fileID: 444970}
  m_Layer: 9
  m_Name: Joint_3_6
  m_TagString: Untagged
  m_Icon: {fileID: 0}
  m_NavMeshLayer: 0
  m_StaticEditorFlags: 0
  m_IsActive: 1
--- !u!1 &199932
GameObject:
  m_ObjectHideFlags: 1
  m_PrefabParentObject: {fileID: 0}
  m_PrefabInternal: {fileID: 100100000}
  serializedVersion: 4
  m_Component:
  - 4: {fileID: 474936}
  m_Layer: 9
  m_Name: L_point2
  m_TagString: Untagged
  m_Icon: {fileID: 0}
  m_NavMeshLayer: 0
  m_StaticEditorFlags: 0
  m_IsActive: 1
--- !u!4 &402708
Transform:
  m_ObjectHideFlags: 1
  m_PrefabParentObject: {fileID: 0}
  m_PrefabInternal: {fileID: 100100000}
  m_GameObject: {fileID: 131414}
  m_LocalRotation: {x: -0.17996898, y: -0.018704625, z: -0.0009611828, w: 0.983494}
  m_LocalPosition: {x: 1.8297862e-16, y: 1.7763568e-17, z: -0.2206204}
  m_LocalScale: {x: 1, y: 1, z: 1}
  m_Children:
  - {fileID: 447440}
  m_Father: {fileID: 420738}
  m_RootOrder: 1
--- !u!4 &402902
Transform:
  m_ObjectHideFlags: 1
  m_PrefabParentObject: {fileID: 0}
  m_PrefabInternal: {fileID: 100100000}
  m_GameObject: {fileID: 193804}
  m_LocalRotation: {x: 0, y: 0.9787389, z: 0, w: 0.20511022}
  m_LocalPosition: {x: -0.6918297, y: 1.1280003, z: 3.570669}
  m_LocalScale: {x: 1, y: 1, z: 1}
  m_Children:
  - {fileID: 436268}
  m_Father: {fileID: 443614}
  m_RootOrder: 1
--- !u!4 &403798
Transform:
  m_ObjectHideFlags: 1
  m_PrefabParentObject: {fileID: 0}
  m_PrefabInternal: {fileID: 100100000}
  m_GameObject: {fileID: 196590}
  m_LocalRotation: {x: 0.16326672, y: -0.048044134, z: 0.050882455, w: 0.98409694}
  m_LocalPosition: {x: 0.017154925, y: -0.0064868527, z: -0.13233338}
  m_LocalScale: {x: 1, y: 1, z: 1}
  m_Children:
  - {fileID: 469038}
  m_Father: {fileID: 485828}
  m_RootOrder: 2
--- !u!4 &405418
Transform:
  m_ObjectHideFlags: 1
  m_PrefabParentObject: {fileID: 0}
  m_PrefabInternal: {fileID: 100100000}
  m_GameObject: {fileID: 189016}
  m_LocalRotation: {x: 0.18736935, y: -0.1540261, z: -0.015143032, w: 0.9700203}
  m_LocalPosition: {x: 0.062249172, y: 0.01774749, z: -0.10866141}
  m_LocalScale: {x: 1, y: 1, z: 1}
  m_Children:
  - {fileID: 476416}
  m_Father: {fileID: 485828}
  m_RootOrder: 3
--- !u!4 &406840
Transform:
  m_ObjectHideFlags: 1
  m_PrefabParentObject: {fileID: 0}
  m_PrefabInternal: {fileID: 100100000}
  m_GameObject: {fileID: 172632}
  m_LocalRotation: {x: 0.13042048, y: -0.45583156, z: -0.2943689, w: -0.8297922}
  m_LocalPosition: {x: 0.06, y: 0.06, z: -0.05}
  m_LocalScale: {x: 1, y: 1, z: 1}
  m_Children: []
  m_Father: {fileID: 485828}
  m_RootOrder: 5
--- !u!4 &408296
Transform:
  m_ObjectHideFlags: 1
  m_PrefabParentObject: {fileID: 0}
  m_PrefabInternal: {fileID: 100100000}
  m_GameObject: {fileID: 121164}
  m_LocalRotation: {x: -0.0022188984, y: 0.99666435, z: -0.0815792, w: 0.00024240378}
  m_LocalPosition: {x: 0.00006173328, y: 0.19164692, z: -0.13482574}
  m_LocalScale: {x: 1, y: 1, z: 1}
  m_Children: []
  m_Father: {fileID: 420738}
  m_RootOrder: 3
--- !u!4 &408386
Transform:
  m_ObjectHideFlags: 1
  m_PrefabParentObject: {fileID: 0}
  m_PrefabInternal: {fileID: 100100000}
  m_GameObject: {fileID: 123488}
  m_LocalRotation: {x: 0.5047469, y: -0.1268731, z: 0.025646362, w: 0.8535081}
  m_LocalPosition: {x: 5.542233e-15, y: -5.7287506e-16, z: -0.45684573}
  m_LocalScale: {x: 1, y: 1, z: 1}
  m_Children:
  - {fileID: 434580}
  m_Father: {fileID: 459826}
  m_RootOrder: 0
--- !u!4 &411024
Transform:
  m_ObjectHideFlags: 1
  m_PrefabParentObject: {fileID: 0}
  m_PrefabInternal: {fileID: 100100000}
  m_GameObject: {fileID: 199124}
  m_LocalRotation: {x: 0.999015, y: -0.021464115, z: -0.035679575, w: -0.015341742}
  m_LocalPosition: {x: 0.12293453, y: 0.0024826606, z: 0.026726305}
  m_LocalScale: {x: 1, y: 1, z: 1}
  m_Children:
  - {fileID: 456058}
  m_Father: {fileID: 428174}
  m_RootOrder: 0
--- !u!4 &411176
Transform:
  m_ObjectHideFlags: 1
  m_PrefabParentObject: {fileID: 0}
  m_PrefabInternal: {fileID: 100100000}
  m_GameObject: {fileID: 160470}
  m_LocalRotation: {x: 0.018565154, y: -0.011738439, z: 0.00021797854, w: 0.9997587}
  m_LocalPosition: {x: 2.664535e-16, y: 2.1316282e-16, z: -0.033312295}
  m_LocalScale: {x: 1, y: 1, z: 1}
  m_Children:
  - {fileID: 460936}
  m_Father: {fileID: 474936}
  m_RootOrder: 0
--- !u!4 &412562
Transform:
  m_ObjectHideFlags: 1
  m_PrefabParentObject: {fileID: 0}
  m_PrefabInternal: {fileID: 100100000}
  m_GameObject: {fileID: 187010}
  m_LocalRotation: {x: 0.2948466, y: -0.5026883, z: -0.399808, w: -0.7074769}
  m_LocalPosition: {x: -0.02, y: 0.03, z: -0.05}
  m_LocalScale: {x: 1, y: 1, z: 1}
  m_Children: []
  m_Father: {fileID: 416470}
  m_RootOrder: 5
--- !u!4 &412744
Transform:
  m_ObjectHideFlags: 1
  m_PrefabParentObject: {fileID: 0}
  m_PrefabInternal: {fileID: 100100000}
  m_GameObject: {fileID: 130092}
  m_LocalRotation: {x: 5.8564265e-15, y: -4.0245585e-15, z: -1.3877788e-16, w: 1}
  m_LocalPosition: {x: -8.8817837e-17, y: 3.375078e-16, z: -0.021154093}
  m_LocalScale: {x: 1, y: 1, z: 1}
  m_Children: []
  m_Father: {fileID: 499044}
  m_RootOrder: 0
--- !u!4 &413502
Transform:
  m_ObjectHideFlags: 1
  m_PrefabParentObject: {fileID: 0}
  m_PrefabInternal: {fileID: 100100000}
  m_GameObject: {fileID: 100166}
  m_LocalRotation: {x: 0.24997613, y: 0.056870718, z: -0.071533024, w: 0.96392983}
  m_LocalPosition: {x: -0.02924742, y: 0.05774531, z: -0.10866141}
  m_LocalScale: {x: 1, y: 1, z: 1}
  m_Children:
  - {fileID: 443774}
  m_Father: {fileID: 416470}
  m_RootOrder: 3
--- !u!4 &415596
Transform:
  m_ObjectHideFlags: 1
  m_PrefabParentObject: {fileID: 0}
  m_PrefabInternal: {fileID: 100100000}
  m_GameObject: {fileID: 111224}
  m_LocalRotation: {x: 0, y: 0, z: 0, w: 1}
  m_LocalPosition: {x: 0, y: 0, z: 0}
  m_LocalScale: {x: 1, y: 1, z: 1}
  m_Children: []
  m_Father: {fileID: 484822}
  m_RootOrder: 0
--- !u!4 &416470
Transform:
  m_ObjectHideFlags: 1
  m_PrefabParentObject: {fileID: 0}
  m_PrefabInternal: {fileID: 100100000}
  m_GameObject: {fileID: 198146}
  m_LocalRotation: {x: -0.08109692, y: -0.22428104, z: 0.17517312, w: 0.95521504}
  m_LocalPosition: {x: -7.105427e-17, y: 3.5527135e-16, z: -0.2791665}
  m_LocalScale: {x: 1, y: 1, z: 1}
  m_Children:
  - {fileID: 474390}
  - {fileID: 483224}
  - {fileID: 439224}
  - {fileID: 413502}
  - {fileID: 485878}
  - {fileID: 412562}
  m_Father: {fileID: 497458}
  m_RootOrder: 0
--- !u!4 &420140
Transform:
  m_ObjectHideFlags: 1
  m_PrefabParentObject: {fileID: 0}
  m_PrefabInternal: {fileID: 100100000}
  m_GameObject: {fileID: 191632}
  m_LocalRotation: {x: 0.02966894, y: -0.0035062456, z: -0.0062533175, w: 0.9995341}
  m_LocalPosition: {x: -2.3092638e-16, y: 1.0658141e-16, z: -0.03632485}
  m_LocalScale: {x: 1, y: 1, z: 1}
  m_Children:
  - {fileID: 484488}
  m_Father: {fileID: 487456}
  m_RootOrder: 0
--- !u!4 &420738
Transform:
  m_ObjectHideFlags: 1
  m_PrefabParentObject: {fileID: 0}
  m_PrefabInternal: {fileID: 100100000}
  m_GameObject: {fileID: 170242}
  m_LocalRotation: {x: 0.043963093, y: -0.00019424029, z: -0.0000072226876, w: 0.99903315}
  m_LocalPosition: {x: 1.6854558e-17, y: -3.5527136e-17, z: -0.19483559}
  m_LocalScale: {x: 1, y: 1, z: 1}
  m_Children:
  - {fileID: 495050}
  - {fileID: 402708}
  - {fileID: 429292}
  - {fileID: 408296}
  - {fileID: 497924}
  - {fileID: 435042}
  - {fileID: 429676}
  m_Father: {fileID: 498846}
  m_RootOrder: 0
--- !u!4 &422108
Transform:
  m_ObjectHideFlags: 1
  m_PrefabParentObject: {fileID: 0}
  m_PrefabInternal: {fileID: 100100000}
  m_GameObject: {fileID: 174716}
  m_LocalRotation: {x: -9.436896e-16, y: 4.198031e-15, z: 2.7755576e-16, w: 1}
  m_LocalPosition: {x: -4.973799e-16, y: 1.7763568e-17, z: -0.024647232}
  m_LocalScale: {x: 1, y: 1, z: 1}
  m_Children: []
  m_Father: {fileID: 467082}
  m_RootOrder: 0
--- !u!4 &428174
Transform:
  m_ObjectHideFlags: 1
  m_PrefabParentObject: {fileID: 0}
  m_PrefabInternal: {fileID: 100100000}
  m_GameObject: {fileID: 189542}
  m_LocalRotation: {x: -0.00000038905117, y: 0.7071731, z: -0.70704055, w: -0.00000038897772}
  m_LocalPosition: {x: 0, y: 0.9801781, z: 0.064688556}
  m_LocalScale: {x: 1, y: 1, z: 1}
  m_Children:
  - {fileID: 411024}
  - {fileID: 476438}
  - {fileID: 498846}
  m_Father: {fileID: 484822}
  m_RootOrder: 1
--- !u!4 &429292
Transform:
  m_ObjectHideFlags: 1
  m_PrefabParentObject: {fileID: 0}
  m_PrefabInternal: {fileID: 100100000}
  m_GameObject: {fileID: 148272}
  m_LocalRotation: {x: 0.107912034, y: 0.83048743, z: 0.016230704, w: 0.54624367}
  m_LocalPosition: {x: -0.07551474, y: -0.005254067, z: -0.14928946}
  m_LocalScale: {x: 1, y: 1, z: 1}
  m_Children:
  - {fileID: 442324}
  m_Father: {fileID: 420738}
  m_RootOrder: 2
--- !u!4 &429676
Transform:
  m_ObjectHideFlags: 1
  m_PrefabParentObject: {fileID: 0}
  m_PrefabInternal: {fileID: 100100000}
  m_GameObject: {fileID: 164468}
  m_LocalRotation: {x: -0.0022188795, y: 0.99666435, z: -0.0815793, w: 0.00024238226}
  m_LocalPosition: {x: 0, y: 0.133, z: -0.317}
  m_LocalScale: {x: 1, y: 1, z: 1}
  m_Children: []
  m_Father: {fileID: 420738}
  m_RootOrder: 6
--- !u!4 &430092
Transform:
  m_ObjectHideFlags: 1
  m_PrefabParentObject: {fileID: 0}
  m_PrefabInternal: {fileID: 100100000}
  m_GameObject: {fileID: 147934}
  m_LocalRotation: {x: -4.125183e-12, y: -1.3093214e-11, z: 2.2857687e-16, w: 1}
  m_LocalPosition: {x: 2.1758595e-12, y: -6.855139e-13, z: -0.08309089}
  m_LocalScale: {x: 1, y: 1, z: 1}
  m_Children: []
  m_Father: {fileID: 463988}
  m_RootOrder: 0
--- !u!4 &431842
Transform:
  m_ObjectHideFlags: 1
  m_PrefabParentObject: {fileID: 0}
  m_PrefabInternal: {fileID: 100100000}
  m_GameObject: {fileID: 104618}
  m_LocalRotation: {x: 0.18541546, y: -0.17838655, z: 0.27242586, w: 0.92713726}
  m_LocalPosition: {x: -9.237055e-16, y: -1.1368684e-15, z: -0.058311157}
  m_LocalScale: {x: 1, y: 1, z: 1}
  m_Children:
  - {fileID: 450336}
  m_Father: {fileID: 451308}
  m_RootOrder: 0
--- !u!4 &433524
Transform:
  m_ObjectHideFlags: 1
  m_PrefabParentObject: {fileID: 0}
  m_PrefabInternal: {fileID: 100100000}
  m_GameObject: {fileID: 158250}
  m_LocalRotation: {x: 0.10097209, y: 0.2881175, z: -0.016936999, w: 0.9521062}
  m_LocalPosition: {x: 7.105427e-17, y: 0, z: -0.026072184}
  m_LocalScale: {x: 1, y: 1, z: 1}
  m_Children:
  - {fileID: 471546}
  m_Father: {fileID: 470404}
  m_RootOrder: 0
--- !u!4 &434086
Transform:
  m_ObjectHideFlags: 1
  m_PrefabParentObject: {fileID: 0}
  m_PrefabInternal: {fileID: 100100000}
  m_GameObject: {fileID: 127370}
  m_LocalRotation: {x: -0.010501758, y: -0.4000186, z: 0.029011192, w: 0.91598755}
  m_LocalPosition: {x: -0, y: 4.4408918e-17, z: -0.10753814}
  m_LocalScale: {x: 1, y: 1, z: 1}
  m_Children:
  - {fileID: 497458}
  m_Father: {fileID: 495050}
  m_RootOrder: 0
--- !u!4 &434580
Transform:
  m_ObjectHideFlags: 1
  m_PrefabParentObject: {fileID: 0}
  m_PrefabInternal: {fileID: 100100000}
  m_GameObject: {fileID: 166226}
  m_LocalRotation: {x: 0.3209823, y: -0.08211901, z: 0.033350114, w: 0.94292873}
  m_LocalPosition: {x: -2.3661073e-14, y: 6.288303e-15, z: -0.1471456}
  m_LocalScale: {x: 1, y: 1, z: 1}
  m_Children:
  - {fileID: 472348}
  m_Father: {fileID: 408386}
  m_RootOrder: 0
--- !u!4 &435042
Transform:
  m_ObjectHideFlags: 1
  m_PrefabParentObject: {fileID: 0}
  m_PrefabInternal: {fileID: 100100000}
  m_GameObject: {fileID: 190922}
  m_LocalRotation: {x: -0.0022188798, y: 0.9966644, z: -0.081579275, w: 0.00024239719}
  m_LocalPosition: {x: 0.00006170939, y: 0.19164686, z: -0.13482544}
  m_LocalScale: {x: 1, y: 1, z: 1}
  m_Children: []
  m_Father: {fileID: 420738}
  m_RootOrder: 5
--- !u!4 &435448
Transform:
  m_ObjectHideFlags: 1
  m_PrefabParentObject: {fileID: 0}
  m_PrefabInternal: {fileID: 100100000}
  m_GameObject: {fileID: 127338}
  m_LocalRotation: {x: -8.6042284e-16, y: -6.694298e-15, z: -5.759927e-30, w: 1}
  m_LocalPosition: {x: 3.5527135e-16, y: -3.5527136e-17, z: -0.019290932}
  m_LocalScale: {x: 1, y: 1, z: 1}
  m_Children: []
  m_Father: {fileID: 455306}
  m_RootOrder: 0
--- !u!4 &436268
Transform:
  m_ObjectHideFlags: 1
  m_PrefabParentObject: {fileID: 0}
  m_PrefabInternal: {fileID: 100100000}
  m_GameObject: {fileID: 114660}
  m_LocalRotation: {x: 0, y: 0, z: 0, w: 1}
  m_LocalPosition: {x: 0, y: 0, z: 10.65}
  m_LocalScale: {x: 1, y: 1, z: 1}
  m_Children: []
  m_Father: {fileID: 402902}
  m_RootOrder: 0
--- !u!4 &437082
Transform:
  m_ObjectHideFlags: 1
  m_PrefabParentObject: {fileID: 0}
  m_PrefabInternal: {fileID: 100100000}
  m_GameObject: {fileID: 136654}
  m_LocalRotation: {x: 0.056464367, y: 0.055845328, z: -0.008363077, w: 0.9968065}
  m_LocalPosition: {x: -0, y: 5.684342e-16, z: -0.034223836}
  m_LocalScale: {x: 1, y: 1, z: 1}
  m_Children:
  - {fileID: 457040}
  m_Father: {fileID: 476416}
  m_RootOrder: 0
--- !u!4 &438506
Transform:
  m_ObjectHideFlags: 1
  m_PrefabParentObject: {fileID: 0}
  m_PrefabInternal: {fileID: 100100000}
  m_GameObject: {fileID: 100708}
  m_LocalRotation: {x: 0.18172537, y: -0.10759933, z: 0.1013647, w: 0.97217464}
  m_LocalPosition: {x: 0.04443186, y: 0.0036968319, z: -0.12610598}
  m_LocalScale: {x: 1, y: 1, z: 1}
  m_Children:
  - {fileID: 487456}
  m_Father: {fileID: 485828}
  m_RootOrder: 0
--- !u!4 &439224
Transform:
  m_ObjectHideFlags: 1
  m_PrefabParentObject: {fileID: 0}
  m_PrefabInternal: {fileID: 100100000}
  m_GameObject: {fileID: 189158}
  m_LocalRotation: {x: 0.18543558, y: -0.1029991, z: 0.005204842, w: 0.97722965}
  m_LocalPosition: {x: -0.016411765, y: 0.008186859, z: -0.13233338}
  m_LocalScale: {x: 1, y: 1, z: 1}
  m_Children:
  - {fileID: 474936}
  m_Father: {fileID: 416470}
  m_RootOrder: 2
--- !u!4 &442324
Transform:
  m_ObjectHideFlags: 1
  m_PrefabParentObject: {fileID: 0}
  m_PrefabInternal: {fileID: 100100000}
  m_GameObject: {fileID: 128280}
  m_LocalRotation: {x: 0.1278325, y: 0.38731024, z: -0.0014909434, w: 0.91304296}
  m_LocalPosition: {x: -0, y: 4.2632563e-16, z: -0.10753814}
  m_LocalScale: {x: 1, y: 1, z: 1}
  m_Children:
  - {fileID: 499850}
  m_Father: {fileID: 429292}
  m_RootOrder: 0
--- !u!4 &443614
Transform:
  m_ObjectHideFlags: 1
  m_PrefabParentObject: {fileID: 0}
  m_PrefabInternal: {fileID: 100100000}
  m_GameObject: {fileID: 107924}
  m_LocalRotation: {x: 0, y: -0.9787389, z: 0, w: 0.20511022}
  m_LocalPosition: {x: 336.29593, y: 0, z: 190.7479}
  m_LocalScale: {x: 1, y: 1, z: 1}
  m_Children:
  - {fileID: 484822}
  - {fileID: 402902}
  m_Father: {fileID: 0}
  m_RootOrder: 0
--- !u!4 &443774
Transform:
  m_ObjectHideFlags: 1
  m_PrefabParentObject: {fileID: 0}
  m_PrefabInternal: {fileID: 100100000}
  m_GameObject: {fileID: 150384}
  m_LocalRotation: {x: 0.06036602, y: -0.34943235, z: 0.022995869, w: 0.93473214}
  m_LocalPosition: {x: -0, y: 1.0658141e-16, z: -0.0339067}
  m_LocalScale: {x: 1, y: 1, z: 1}
  m_Children:
  - {fileID: 467082}
  m_Father: {fileID: 413502}
  m_RootOrder: 0
--- !u!4 &444970
Transform:
  m_ObjectHideFlags: 1
  m_PrefabParentObject: {fileID: 0}
  m_PrefabInternal: {fileID: 100100000}
  m_GameObject: {fileID: 199802}
  m_LocalRotation: {x: -6.4948047e-15, y: 7.722989e-15, z: -2.7755576e-17, w: 1}
  m_LocalPosition: {x: -6.3948843e-16, y: -6.0396133e-16, z: -0.030483827}
  m_LocalScale: {x: 1, y: 1, z: 1}
  m_Children: []
  m_Father: {fileID: 450336}
  m_RootOrder: 0
--- !u!4 &447070
Transform:
  m_ObjectHideFlags: 1
  m_PrefabParentObject: {fileID: 0}
  m_PrefabInternal: {fileID: 100100000}
  m_GameObject: {fileID: 161746}
  m_LocalRotation: {x: 0.16005334, y: 0.000000012113997, z: 0.000000013013449, w: 0.9871084}
  m_LocalPosition: {x: 0.000010102987, y: 1.178, z: 0.20299745}
  m_LocalScale: {x: 1, y: 1, z: 1}
  m_Children: []
  m_Father: {fileID: 484822}
  m_RootOrder: 3
--- !u!4 &447440
Transform:
  m_ObjectHideFlags: 1
  m_PrefabParentObject: {fileID: 0}
  m_PrefabInternal: {fileID: 100100000}
  m_GameObject: {fileID: 149738}
  m_LocalRotation: {x: 0.13805528, y: 0.031127445, z: -0.07438914, w: 0.9871363}
  m_LocalPosition: {x: 5.3290704e-17, y: -2.1316282e-16, z: -0.070576645}
  m_LocalScale: {x: 1, y: 1, z: 1}
  m_Children:
  - {fileID: 469912}
  m_Father: {fileID: 402708}
  m_RootOrder: 0
--- !u!4 &450336
Transform:
  m_ObjectHideFlags: 1
  m_PrefabParentObject: {fileID: 0}
  m_PrefabInternal: {fileID: 100100000}
  m_GameObject: {fileID: 188260}
  m_LocalRotation: {x: -0.06991519, y: 0.053081702, z: 0.0040032677, w: 0.9961316}
  m_LocalPosition: {x: 1.2789769e-15, y: 6.0396133e-16, z: -0.03545917}
  m_LocalScale: {x: 1, y: 1, z: 1}
  m_Children:
  - {fileID: 444970}
  m_Father: {fileID: 431842}
  m_RootOrder: 0
--- !u!4 &451308
Transform:
  m_ObjectHideFlags: 1
  m_PrefabParentObject: {fileID: 0}
  m_PrefabInternal: {fileID: 100100000}
  m_GameObject: {fileID: 121282}
  m_LocalRotation: {x: -0.040817574, y: 0.33514395, z: -0.22060345, w: 0.9150664}
  m_LocalPosition: {x: -2.4868996e-16, y: -7.105427e-16, z: -0.047781546}
  m_LocalScale: {x: 1, y: 1, z: 1}
  m_Children:
  - {fileID: 431842}
  m_Father: {fileID: 485828}
  m_RootOrder: 4
--- !u!4 &451868
Transform:
  m_ObjectHideFlags: 1
  m_PrefabParentObject: {fileID: 0}
  m_PrefabInternal: {fileID: 100100000}
  m_GameObject: {fileID: 147316}
  m_LocalRotation: {x: 0.024816168, y: -0.016634228, z: 0.00041298216, w: 0.99955356}
  m_LocalPosition: {x: 3.0198067e-16, y: 5.3290704e-17, z: -0.03632485}
  m_LocalScale: {x: 1, y: 1, z: 1}
  m_Children:
  - {fileID: 481744}
  m_Father: {fileID: 493768}
  m_RootOrder: 0
--- !u!4 &455306
Transform:
  m_ObjectHideFlags: 1
  m_PrefabParentObject: {fileID: 0}
  m_PrefabInternal: {fileID: 100100000}
  m_GameObject: {fileID: 144118}
  m_LocalRotation: {x: -0.025849404, y: -0.10545317, z: 0.0014467989, w: 0.9940872}
  m_LocalPosition: {x: 7.81597e-16, y: 2.842171e-16, z: -0.02622623}
  m_LocalScale: {x: 1, y: 1, z: 1}
  m_Children:
  - {fileID: 435448}
  m_Father: {fileID: 496814}
  m_RootOrder: 0
--- !u!4 &456058
Transform:
  m_ObjectHideFlags: 1
  m_PrefabParentObject: {fileID: 0}
  m_PrefabInternal: {fileID: 100100000}
  m_GameObject: {fileID: 102136}
  m_LocalRotation: {x: -0.13205409, y: 0.016602682, z: 0.00096987444, w: 0.991103}
  m_LocalPosition: {x: -3.5527136e-17, y: -7.105427e-17, z: -0.38565487}
  m_LocalScale: {x: 1, y: 1, z: 1}
  m_Children:
  - {fileID: 467778}
  m_Father: {fileID: 411024}
  m_RootOrder: 0
--- !u!4 &457040
Transform:
  m_ObjectHideFlags: 1
  m_PrefabParentObject: {fileID: 0}
  m_PrefabInternal: {fileID: 100100000}
  m_GameObject: {fileID: 138540}
  m_LocalRotation: {x: -1.9151347e-15, y: -4.121703e-15, z: -7.8936165e-30, w: 1}
  m_LocalPosition: {x: 5.32907e-16, y: -3.5527135e-16, z: -0.024647232}
  m_LocalScale: {x: 1, y: 1, z: 1}
  m_Children: []
  m_Father: {fileID: 437082}
  m_RootOrder: 0
--- !u!4 &459826
Transform:
  m_ObjectHideFlags: 1
  m_PrefabParentObject: {fileID: 0}
  m_PrefabInternal: {fileID: 100100000}
  m_GameObject: {fileID: 103608}
  m_LocalRotation: {x: -0.13029596, y: 0.016576018, z: 0.0027911516, w: 0.99133265}
  m_LocalPosition: {x: -7.81597e-16, y: 3.1974422e-16, z: -0.38565487}
  m_LocalScale: {x: 1, y: 1, z: 1}
  m_Children:
  - {fileID: 408386}
  m_Father: {fileID: 476438}
  m_RootOrder: 0
--- !u!4 &460936
Transform:
  m_ObjectHideFlags: 1
  m_PrefabParentObject: {fileID: 0}
  m_PrefabInternal: {fileID: 100100000}
  m_GameObject: {fileID: 118188}
  m_LocalRotation: {x: 6.6474604e-15, y: -3.0600522e-15, z: 2.0341576e-29, w: 1}
  m_LocalPosition: {x: 3.907985e-16, y: 4.973799e-16, z: -0.021154093}
  m_LocalScale: {x: 1, y: 1, z: 1}
  m_Children: []
  m_Father: {fileID: 411176}
  m_RootOrder: 0
--- !u!4 &463988
Transform:
  m_ObjectHideFlags: 1
  m_PrefabParentObject: {fileID: 0}
  m_PrefabInternal: {fileID: 100100000}
  m_GameObject: {fileID: 197738}
  m_LocalRotation: {x: 0.3189119, y: -0.08979703, z: 0.02995494, w: 0.9430453}
  m_LocalPosition: {x: -0, y: 4.0856205e-16, z: -0.1471456}
  m_LocalScale: {x: 1, y: 1, z: 1}
  m_Children:
  - {fileID: 430092}
  m_Father: {fileID: 467778}
  m_RootOrder: 0
--- !u!4 &466546
Transform:
  m_ObjectHideFlags: 1
  m_PrefabParentObject: {fileID: 0}
  m_PrefabInternal: {fileID: 100100000}
  m_GameObject: {fileID: 148954}
  m_LocalRotation: {x: 2.7339242e-15, y: 7.209511e-15, z: 1.110223e-16, w: 1}
  m_LocalPosition: {x: -2.1316282e-16, y: 0, z: -0.019290932}
  m_LocalScale: {x: 1, y: 1, z: 1}
  m_Children: []
  m_Father: {fileID: 471546}
  m_RootOrder: 0
--- !u!4 &467082
Transform:
  m_ObjectHideFlags: 1
  m_PrefabParentObject: {fileID: 0}
  m_PrefabInternal: {fileID: 100100000}
  m_GameObject: {fileID: 156580}
  m_LocalRotation: {x: 0.08142443, y: -0.25632024, z: 0.03920301, w: 0.9623581}
  m_LocalPosition: {x: 2.1316282e-16, y: 1.5987211e-16, z: -0.034223836}
  m_LocalScale: {x: 1, y: 1, z: 1}
  m_Children:
  - {fileID: 422108}
  m_Father: {fileID: 443774}
  m_RootOrder: 0
--- !u!4 &467778
Transform:
  m_ObjectHideFlags: 1
  m_PrefabParentObject: {fileID: 0}
  m_PrefabInternal: {fileID: 100100000}
  m_GameObject: {fileID: 192664}
  m_LocalRotation: {x: 0.5183431, y: -0.05157175, z: 0.07851447, w: 0.8499979}
  m_LocalPosition: {x: 7.105427e-17, y: -1.5099033e-16, z: -0.45684573}
  m_LocalScale: {x: 1, y: 1, z: 1}
  m_Children:
  - {fileID: 463988}
  m_Father: {fileID: 456058}
  m_RootOrder: 0
--- !u!4 &468936
Transform:
  m_ObjectHideFlags: 1
  m_PrefabParentObject: {fileID: 0}
  m_PrefabInternal: {fileID: 100100000}
  m_GameObject: {fileID: 180956}
  m_LocalRotation: {x: 0, y: 0, z: 0, w: 1}
  m_LocalPosition: {x: 0, y: 0, z: 0}
  m_LocalScale: {x: 1, y: 1, z: 1}
  m_Children: []
  m_Father: {fileID: 484822}
  m_RootOrder: 2
--- !u!4 &469038
Transform:
  m_ObjectHideFlags: 1
  m_PrefabParentObject: {fileID: 0}
  m_PrefabInternal: {fileID: 100100000}
  m_GameObject: {fileID: 160798}
  m_LocalRotation: {x: 0.14010906, y: 0.0013564313, z: 0.005705462, w: 0.99011874}
  m_LocalPosition: {x: -2.664535e-16, y: 1.7763568e-17, z: -0.03611952}
  m_LocalScale: {x: 1, y: 1, z: 1}
  m_Children:
  - {fileID: 499044}
  m_Father: {fileID: 403798}
  m_RootOrder: 0
--- !u!4 &469912
Transform:
  m_ObjectHideFlags: 1
  m_PrefabParentObject: {fileID: 0}
  m_PrefabInternal: {fileID: 100100000}
  m_GameObject: {fileID: 172880}
  m_LocalRotation: {x: -3.469447e-18, y: -1.3010426e-18, z: 1.3877788e-17, w: 1}
  m_LocalPosition: {x: -2.4424906e-17, y: 8.881784e-18, z: -0.16347124}
  m_LocalScale: {x: 1, y: 1, z: 1}
  m_Children: []
  m_Father: {fileID: 447440}
  m_RootOrder: 0
--- !u!4 &470404
Transform:
  m_ObjectHideFlags: 1
  m_PrefabParentObject: {fileID: 0}
  m_PrefabInternal: {fileID: 100100000}
  m_GameObject: {fileID: 172996}
  m_LocalRotation: {x: 0.22725448, y: -0.1518285, z: -0.08086576, w: 0.9585219}
  m_LocalPosition: {x: 0.074217446, y: 0.038155895, z: -0.08364926}
  m_LocalScale: {x: 1, y: 1, z: 1}
  m_Children:
  - {fileID: 433524}
  m_Father: {fileID: 485828}
  m_RootOrder: 1
--- !u!4 &471546
Transform:
  m_ObjectHideFlags: 1
  m_PrefabParentObject: {fileID: 0}
  m_PrefabInternal: {fileID: 100100000}
  m_GameObject: {fileID: 106976}
  m_LocalRotation: {x: 0.047626242, y: 0.13626839, z: 0.0024003736, w: 0.9895236}
  m_LocalPosition: {x: -3.5527135e-16, y: 6.750156e-16, z: -0.02622623}
  m_LocalScale: {x: 1, y: 1, z: 1}
  m_Children:
  - {fileID: 466546}
  m_Father: {fileID: 433524}
  m_RootOrder: 0
--- !u!4 &472348
Transform:
  m_ObjectHideFlags: 1
  m_PrefabParentObject: {fileID: 0}
  m_PrefabInternal: {fileID: 100100000}
  m_GameObject: {fileID: 121352}
  m_LocalRotation: {x: 2.3997995e-11, y: -1.1510339e-11, z: -1.3631104e-16, w: 1}
  m_LocalPosition: {x: -2.1133672e-12, y: 6.7079675e-13, z: -0.08309089}
  m_LocalScale: {x: 1, y: 1, z: 1}
  m_Children: []
  m_Father: {fileID: 434580}
  m_RootOrder: 0
--- !u!4 &474390
Transform:
  m_ObjectHideFlags: 1
  m_PrefabParentObject: {fileID: 0}
  m_PrefabInternal: {fileID: 100100000}
  m_GameObject: {fileID: 127392}
  m_LocalRotation: {x: 0.19541569, y: -0.041971557, z: 0.018541371, w: 0.97964656}
  m_LocalPosition: {x: -0.027460933, y: 0.03512484, z: -0.12610598}
  m_LocalScale: {x: 1, y: 1, z: 1}
  m_Children:
  - {fileID: 493768}
  m_Father: {fileID: 416470}
  m_RootOrder: 0
--- !u!4 &474936
Transform:
  m_ObjectHideFlags: 1
  m_PrefabParentObject: {fileID: 0}
  m_PrefabInternal: {fileID: 100100000}
  m_GameObject: {fileID: 199932}
  m_LocalRotation: {x: 0.021412322, y: -0.112738505, z: -0.001305099, w: 0.9933931}
  m_LocalPosition: {x: 1.7763567e-16, y: 0, z: -0.03611952}
  m_LocalScale: {x: 1, y: 1, z: 1}
  m_Children:
  - {fileID: 411176}
  m_Father: {fileID: 439224}
  m_RootOrder: 0
--- !u!4 &476416
Transform:
  m_ObjectHideFlags: 1
  m_PrefabParentObject: {fileID: 0}
  m_PrefabInternal: {fileID: 100100000}
  m_GameObject: {fileID: 187574}
  m_LocalRotation: {x: 0.15837769, y: 0.15378842, z: -0.0021275019, w: 0.9753262}
  m_LocalPosition: {x: 2.4868996e-16, y: 1.4210854e-16, z: -0.0339067}
  m_LocalScale: {x: 1, y: 1, z: 1}
  m_Children:
  - {fileID: 437082}
  m_Father: {fileID: 405418}
  m_RootOrder: 0
--- !u!4 &476438
Transform:
  m_ObjectHideFlags: 1
  m_PrefabParentObject: {fileID: 0}
  m_PrefabInternal: {fileID: 100100000}
  m_GameObject: {fileID: 151210}
  m_LocalRotation: {x: 0.9957877, y: -0.08350989, z: 0.03320667, w: -0.01817331}
  m_LocalPosition: {x: -0.12293453, y: 0.0024826385, z: 0.026726307}
  m_LocalScale: {x: 1, y: 1, z: 1}
  m_Children:
  - {fileID: 459826}
  m_Father: {fileID: 428174}
  m_RootOrder: 1
--- !u!4 &480936
Transform:
  m_ObjectHideFlags: 1
  m_PrefabParentObject: {fileID: 0}
  m_PrefabInternal: {fileID: 100100000}
  m_GameObject: {fileID: 141680}
  m_LocalRotation: {x: -0.119706966, y: 0.0443133, z: 0.005348439, w: 0.99180543}
  m_LocalPosition: {x: -4.0856205e-16, y: 8.5265126e-16, z: -0.03545917}
  m_LocalScale: {x: 1, y: 1, z: 1}
  m_Children:
  - {fileID: 489758}
  m_Father: {fileID: 494748}
  m_RootOrder: 0
--- !u!4 &481744
Transform:
  m_ObjectHideFlags: 1
  m_PrefabParentObject: {fileID: 0}
  m_PrefabInternal: {fileID: 100100000}
  m_GameObject: {fileID: 146350}
  m_LocalRotation: {x: -8.187895e-16, y: 6.2311267e-15, z: 5.551115e-17, w: 1}
  m_LocalPosition: {x: -5.8619773e-16, y: -2.664535e-16, z: -0.025966879}
  m_LocalScale: {x: 1, y: 1, z: 1}
  m_Children: []
  m_Father: {fileID: 451868}
  m_RootOrder: 0
--- !u!4 &483224
Transform:
  m_ObjectHideFlags: 1
  m_PrefabParentObject: {fileID: 0}
  m_PrefabInternal: {fileID: 100100000}
  m_GameObject: {fileID: 162762}
  m_LocalRotation: {x: 0.23752445, y: -0.032380592, z: -0.104068115, w: 0.96524787}
  m_LocalPosition: {x: -0.02239495, y: 0.080390096, z: -0.08364926}
  m_LocalScale: {x: 1, y: 1, z: 1}
  m_Children:
  - {fileID: 496814}
  m_Father: {fileID: 416470}
  m_RootOrder: 1
--- !u!4 &484488
Transform:
  m_ObjectHideFlags: 1
  m_PrefabParentObject: {fileID: 0}
  m_PrefabInternal: {fileID: 100100000}
  m_GameObject: {fileID: 107000}
  m_LocalRotation: {x: -4.8572257e-15, y: -5.037637e-15, z: -1.110223e-16, w: 1}
  m_LocalPosition: {x: 2.5757173e-16, y: -5.506706e-16, z: -0.025966879}
  m_LocalScale: {x: 1, y: 1, z: 1}
  m_Children: []
  m_Father: {fileID: 420140}
  m_RootOrder: 0
--- !u!4 &484822
Transform:
  m_ObjectHideFlags: 1
  m_PrefabParentObject: {fileID: 0}
  m_PrefabInternal: {fileID: 100100000}
  m_GameObject: {fileID: 186380}
  m_LocalRotation: {x: 0, y: 0, z: 0, w: 1}
  m_LocalPosition: {x: 0, y: 0, z: 0}
  m_LocalScale: {x: 1, y: 1, z: 1}
  m_Children:
  - {fileID: 415596}
  - {fileID: 428174}
  - {fileID: 468936}
  - {fileID: 447070}
  m_Father: {fileID: 443614}
  m_RootOrder: 0
--- !u!4 &485828
Transform:
  m_ObjectHideFlags: 1
  m_PrefabParentObject: {fileID: 0}
  m_PrefabInternal: {fileID: 100100000}
  m_GameObject: {fileID: 137030}
  m_LocalRotation: {x: 0.1657228, y: 0.18429813, z: -0.21084067, w: 0.94557726}
  m_LocalPosition: {x: 1.4210854e-16, y: -2.842171e-16, z: -0.2791665}
  m_LocalScale: {x: 1, y: 1, z: 1}
  m_Children:
  - {fileID: 438506}
  - {fileID: 470404}
  - {fileID: 403798}
  - {fileID: 405418}
  - {fileID: 451308}
  - {fileID: 406840}
  m_Father: {fileID: 499850}
  m_RootOrder: 0
--- !u!4 &485878
Transform:
  m_ObjectHideFlags: 1
  m_PrefabParentObject: {fileID: 0}
  m_PrefabInternal: {fileID: 100100000}
  m_GameObject: {fileID: 192652}
  m_LocalRotation: {x: -0.2535433, y: -0.253355, z: -0.068997055, w: 0.9310029}
  m_LocalPosition: {x: -4.2632563e-16, y: -7.105427e-16, z: -0.047781546}
  m_LocalScale: {x: 1, y: 1, z: 1}
  m_Children:
  - {fileID: 494748}
  m_Father: {fileID: 416470}
  m_RootOrder: 4
--- !u!4 &487456
Transform:
  m_ObjectHideFlags: 1
  m_PrefabParentObject: {fileID: 0}
  m_PrefabInternal: {fileID: 100100000}
  m_GameObject: {fileID: 138940}
  m_LocalRotation: {x: 0.07019852, y: 0.019339157, z: -0.01705769, w: 0.99719965}
  m_LocalPosition: {x: 2.4868996e-16, y: 4.6185276e-16, z: -0.035224877}
  m_LocalScale: {x: 1, y: 1, z: 1}
  m_Children:
  - {fileID: 420140}
  m_Father: {fileID: 438506}
  m_RootOrder: 0
--- !u!4 &489758
Transform:
  m_ObjectHideFlags: 1
  m_PrefabParentObject: {fileID: 0}
  m_PrefabInternal: {fileID: 100100000}
  m_GameObject: {fileID: 176084}
  m_LocalRotation: {x: -9.825474e-15, y: -6.661338e-16, z: 5.551115e-17, w: 1}
  m_LocalPosition: {x: -5.3290704e-17, y: -5.684342e-16, z: -0.030483827}
  m_LocalScale: {x: 1, y: 1, z: 1}
  m_Children: []
  m_Father: {fileID: 480936}
  m_RootOrder: 0
--- !u!4 &493768
Transform:
  m_ObjectHideFlags: 1
  m_PrefabParentObject: {fileID: 0}
  m_PrefabInternal: {fileID: 100100000}
  m_GameObject: {fileID: 199256}
  m_LocalRotation: {x: 0.05098819, y: -0.23493686, z: -0.011629836, w: 0.97060275}
  m_LocalPosition: {x: 1.4210854e-16, y: 1.4210854e-16, z: -0.035224877}
  m_LocalScale: {x: 1, y: 1, z: 1}
  m_Children:
  - {fileID: 451868}
  m_Father: {fileID: 474390}
  m_RootOrder: 0
--- !u!4 &494748
Transform:
  m_ObjectHideFlags: 1
  m_PrefabParentObject: {fileID: 0}
  m_PrefabInternal: {fileID: 100100000}
  m_GameObject: {fileID: 134626}
  m_LocalRotation: {x: 0.24489704, y: 0.07890562, z: -0.020001277, w: 0.9661259}
  m_LocalPosition: {x: 6.5725204e-16, y: -8.5265126e-16, z: -0.058311157}
  m_LocalScale: {x: 1, y: 1, z: 1}
  m_Children:
  - {fileID: 480936}
  m_Father: {fileID: 485878}
  m_RootOrder: 0
--- !u!4 &495050
Transform:
  m_ObjectHideFlags: 1
  m_PrefabParentObject: {fileID: 0}
  m_PrefabInternal: {fileID: 100100000}
  m_GameObject: {fileID: 152104}
  m_LocalRotation: {x: 0.01473375, y: -0.8427337, z: 0.04543364, w: 0.5362077}
  m_LocalPosition: {x: 0.07551473, y: -0.0052540535, z: -0.14928946}
  m_LocalScale: {x: 1, y: 1, z: 1}
  m_Children:
  - {fileID: 434086}
  m_Father: {fileID: 420738}
  m_RootOrder: 0
--- !u!4 &496814
Transform:
  m_ObjectHideFlags: 1
  m_PrefabParentObject: {fileID: 0}
  m_PrefabInternal: {fileID: 100100000}
  m_GameObject: {fileID: 142064}
  m_LocalRotation: {x: -0.05802689, y: -0.2924363, z: 0.005221675, w: 0.9545086}
  m_LocalPosition: {x: -3.5527136e-17, y: 5.3290704e-17, z: -0.026072184}
  m_LocalScale: {x: 1, y: 1, z: 1}
  m_Children:
  - {fileID: 455306}
  m_Father: {fileID: 483224}
  m_RootOrder: 0
--- !u!4 &497458
Transform:
  m_ObjectHideFlags: 1
  m_PrefabParentObject: {fileID: 0}
  m_PrefabInternal: {fileID: 100100000}
  m_GameObject: {fileID: 181568}
  m_LocalRotation: {x: -0.2506169, y: -0.050036613, z: -0.012766976, w: 0.96670806}
  m_LocalPosition: {x: -6.3948843e-16, y: 5.3290704e-17, z: -0.2327319}
  m_LocalScale: {x: 1, y: 1, z: 1}
  m_Children:
  - {fileID: 416470}
  m_Father: {fileID: 434086}
  m_RootOrder: 0
--- !u!4 &497924
Transform:
  m_ObjectHideFlags: 1
  m_PrefabParentObject: {fileID: 0}
  m_PrefabInternal: {fileID: 100100000}
  m_GameObject: {fileID: 172270}
  m_LocalRotation: {x: -0.000014519581, y: 0.9962435, z: -0.08659646, w: 0.00000065224265}
  m_LocalPosition: {x: 0.008331967, y: 0.122322306, z: -0.36648145}
  m_LocalScale: {x: 1, y: 1, z: 1}
  m_Children: []
  m_Father: {fileID: 420738}
  m_RootOrder: 4
--- !u!4 &498846
Transform:
  m_ObjectHideFlags: 1
  m_PrefabParentObject: {fileID: 0}
  m_PrefabInternal: {fileID: 100100000}
  m_GameObject: {fileID: 169280}
  m_LocalRotation: {x: -0.023954602, y: -0.000000026446596, z: -6.3369954e-10, w: 0.99971306}
  m_LocalPosition: {x: 3.6254916e-17, y: -6.095568e-14, z: -0.18009514}
  m_LocalScale: {x: 1, y: 1, z: 1}
  m_Children:
  - {fileID: 420738}
  m_Father: {fileID: 428174}
  m_RootOrder: 2
--- !u!4 &499044
Transform:
  m_ObjectHideFlags: 1
  m_PrefabParentObject: {fileID: 0}
  m_PrefabInternal: {fileID: 100100000}
  m_GameObject: {fileID: 104682}
  m_LocalRotation: {x: 0.020932812, y: -0.006653818, z: 0.004763543, w: 0.9997474}
  m_LocalPosition: {x: 7.105427e-17, y: 3.1974422e-16, z: -0.033312295}
  m_LocalScale: {x: 1, y: 1, z: 1}
  m_Children:
  - {fileID: 412744}
  m_Father: {fileID: 469038}
  m_RootOrder: 0
--- !u!4 &499850
Transform:
  m_ObjectHideFlags: 1
  m_PrefabParentObject: {fileID: 0}
  m_PrefabInternal: {fileID: 100100000}
  m_GameObject: {fileID: 164778}
  m_LocalRotation: {x: -0.15565123, y: 0.17684275, z: 0.32810757, w: 0.9147922}
  m_LocalPosition: {x: 2.1316282e-16, y: -2.842171e-16, z: -0.2327319}
  m_LocalScale: {x: 1, y: 1, z: 1}
  m_Children:
  - {fileID: 485828}
  m_Father: {fileID: 442324}
  m_RootOrder: 0
--- !u!20 &2042606
Camera:
  m_ObjectHideFlags: 1
  m_PrefabParentObject: {fileID: 0}
  m_PrefabInternal: {fileID: 100100000}
  m_GameObject: {fileID: 193804}
  m_Enabled: 1
  serializedVersion: 2
  m_ClearFlags: 1
  m_BackGroundColor: {r: 0.08088237, g: 0.08088237, b: 0.08088237, a: 0.019607844}
  m_NormalizedViewPortRect:
    serializedVersion: 2
    x: 0
    y: 0
    width: 1
    height: 1
  near clip plane: 0.01
  far clip plane: 1000
  field of view: 60
  orthographic: 0
  orthographic size: 5
  m_Depth: -1
  m_CullingMask:
    serializedVersion: 2
    m_Bits: 4294967295
  m_RenderingPath: -1
  m_TargetTexture: {fileID: 0}
  m_TargetDisplay: 0
  m_TargetEye: 3
  m_HDR: 0
  m_OcclusionCulling: 1
  m_StereoConvergence: 10
  m_StereoSeparation: 0.022
  m_StereoMirrorMode: 0
--- !u!23 &2333622
MeshRenderer:
  m_ObjectHideFlags: 1
  m_PrefabParentObject: {fileID: 0}
  m_PrefabInternal: {fileID: 100100000}
  m_GameObject: {fileID: 121164}
  m_Enabled: 1
  m_CastShadows: 1
  m_ReceiveShadows: 1
  m_Materials:
  - {fileID: 2100000, guid: 25f72ce35f5508046b38725e1273f208, type: 2}
  m_SubsetIndices: 
  m_StaticBatchRoot: {fileID: 0}
  m_UseLightProbes: 1
  m_ReflectionProbeUsage: 1
  m_ProbeAnchor: {fileID: 0}
  m_ScaleInLightmap: 1
  m_PreserveUVs: 0
  m_IgnoreNormalsForChartDetection: 0
  m_ImportantGI: 0
  m_MinimumChartSize: 4
  m_AutoUVMaxDistance: 0.5
  m_AutoUVMaxAngle: 89
  m_LightmapParameters: {fileID: 0}
  m_SortingLayerID: 0
  m_SortingOrder: 0
--- !u!23 &2361116
MeshRenderer:
  m_ObjectHideFlags: 1
  m_PrefabParentObject: {fileID: 0}
  m_PrefabInternal: {fileID: 100100000}
  m_GameObject: {fileID: 172270}
  m_Enabled: 1
  m_CastShadows: 1
  m_ReceiveShadows: 1
  m_Materials:
  - {fileID: 2100000, guid: 25f72ce35f5508046b38725e1273f208, type: 2}
  m_SubsetIndices: 
  m_StaticBatchRoot: {fileID: 0}
  m_UseLightProbes: 1
  m_ReflectionProbeUsage: 1
  m_ProbeAnchor: {fileID: 0}
  m_ScaleInLightmap: 1
  m_PreserveUVs: 0
  m_IgnoreNormalsForChartDetection: 0
  m_ImportantGI: 0
  m_MinimumChartSize: 4
  m_AutoUVMaxDistance: 0.5
  m_AutoUVMaxAngle: 89
  m_LightmapParameters: {fileID: 0}
  m_SortingLayerID: 0
  m_SortingOrder: 0
--- !u!33 &3322846
MeshFilter:
  m_ObjectHideFlags: 1
  m_PrefabParentObject: {fileID: 0}
  m_PrefabInternal: {fileID: 100100000}
  m_GameObject: {fileID: 172270}
  m_Mesh: {fileID: 4300002, guid: 9ff3ceaf4639ae84d83a0908ee094d12, type: 3}
--- !u!33 &3361550
MeshFilter:
  m_ObjectHideFlags: 1
  m_PrefabParentObject: {fileID: 0}
  m_PrefabInternal: {fileID: 100100000}
  m_GameObject: {fileID: 121164}
  m_Mesh: {fileID: 4300000, guid: 9ff3ceaf4639ae84d83a0908ee094d12, type: 3}
--- !u!54 &5415990
Rigidbody:
  m_ObjectHideFlags: 1
  m_PrefabParentObject: {fileID: 0}
  m_PrefabInternal: {fileID: 100100000}
  m_GameObject: {fileID: 172270}
  serializedVersion: 2
  m_Mass: 13.11
  m_Drag: 0
  m_AngularDrag: 0
  m_UseGravity: 0
  m_IsKinematic: 0
  m_Interpolate: 0
  m_Constraints: 126
  m_CollisionDetection: 2
--- !u!54 &5438128
Rigidbody:
  m_ObjectHideFlags: 1
  m_PrefabParentObject: {fileID: 0}
  m_PrefabInternal: {fileID: 100100000}
  m_GameObject: {fileID: 197738}
  serializedVersion: 2
  m_Mass: 1
  m_Drag: 0
  m_AngularDrag: 0
  m_UseGravity: 0
  m_IsKinematic: 0
  m_Interpolate: 0
  m_Constraints: 126
  m_CollisionDetection: 0
--- !u!54 &5442724
Rigidbody:
  m_ObjectHideFlags: 1
  m_PrefabParentObject: {fileID: 0}
  m_PrefabInternal: {fileID: 100100000}
  m_GameObject: {fileID: 166226}
  serializedVersion: 2
  m_Mass: 1
  m_Drag: 0
  m_AngularDrag: 0
  m_UseGravity: 0
  m_IsKinematic: 0
  m_Interpolate: 0
  m_Constraints: 126
  m_CollisionDetection: 0
--- !u!64 &6434484
MeshCollider:
  m_ObjectHideFlags: 1
  m_PrefabParentObject: {fileID: 0}
  m_PrefabInternal: {fileID: 100100000}
  m_GameObject: {fileID: 172270}
  m_Material: {fileID: 0}
  m_IsTrigger: 0
  m_Enabled: 1
  serializedVersion: 2
  m_Convex: 1
  m_Mesh: {fileID: 4300002, guid: 9ff3ceaf4639ae84d83a0908ee094d12, type: 3}
--- !u!81 &8192120
AudioListener:
  m_ObjectHideFlags: 1
  m_PrefabParentObject: {fileID: 0}
  m_PrefabInternal: {fileID: 100100000}
  m_GameObject: {fileID: 193804}
  m_Enabled: 1
--- !u!82 &8202356
AudioSource:
  m_ObjectHideFlags: 1
  m_PrefabParentObject: {fileID: 0}
  m_PrefabInternal: {fileID: 100100000}
  m_GameObject: {fileID: 166226}
  m_Enabled: 1
  serializedVersion: 4
  OutputAudioMixerGroup: {fileID: 0}
  m_audioClip: {fileID: 0}
  m_PlayOnAwake: 1
  m_Volume: 1
  m_Pitch: 1
  Loop: 0
  Mute: 0
  Spatialize: 0
  Priority: 128
  DopplerLevel: 1
  MinDistance: 1
  MaxDistance: 500
  Pan2D: 0
  rolloffMode: 0
  BypassEffects: 0
  BypassListenerEffects: 0
  BypassReverbZones: 0
  rolloffCustomCurve:
    serializedVersion: 2
    m_Curve:
    - time: 0
      value: 1
      inSlope: 0
      outSlope: 0
      tangentMode: 0
    - time: 1
      value: 0
      inSlope: 0
      outSlope: 0
      tangentMode: 0
    m_PreInfinity: 2
    m_PostInfinity: 2
    m_RotationOrder: 4
  panLevelCustomCurve:
    serializedVersion: 2
    m_Curve:
    - time: 0
      value: 0
      inSlope: 0
      outSlope: 0
      tangentMode: 0
    m_PreInfinity: 2
    m_PostInfinity: 2
    m_RotationOrder: 4
  spreadCustomCurve:
    serializedVersion: 2
    m_Curve:
    - time: 0
      value: 0
      inSlope: 0
      outSlope: 0
      tangentMode: 0
    m_PreInfinity: 2
    m_PostInfinity: 2
    m_RotationOrder: 4
  reverbZoneMixCustomCurve:
    serializedVersion: 2
    m_Curve:
    - time: 0
      value: 1
      inSlope: 0
      outSlope: 0
      tangentMode: 0
    m_PreInfinity: 2
    m_PostInfinity: 2
    m_RotationOrder: 4
--- !u!82 &8227220
AudioSource:
  m_ObjectHideFlags: 1
  m_PrefabParentObject: {fileID: 0}
  m_PrefabInternal: {fileID: 100100000}
  m_GameObject: {fileID: 186380}
  m_Enabled: 1
  serializedVersion: 4
  OutputAudioMixerGroup: {fileID: 0}
  m_audioClip: {fileID: 0}
  m_PlayOnAwake: 1
  m_Volume: 1
  m_Pitch: 1
  Loop: 0
  Mute: 0
  Spatialize: 0
  Priority: 128
  DopplerLevel: 1
  MinDistance: 1
  MaxDistance: 20
  Pan2D: 0
  rolloffMode: 0
  BypassEffects: 0
  BypassListenerEffects: 0
  BypassReverbZones: 0
  rolloffCustomCurve:
    serializedVersion: 2
    m_Curve:
    - time: 0
      value: 1
      inSlope: 0
      outSlope: 0
      tangentMode: 0
    - time: 1
      value: 0
      inSlope: 0
      outSlope: 0
      tangentMode: 0
    m_PreInfinity: 2
    m_PostInfinity: 2
    m_RotationOrder: 4
  panLevelCustomCurve:
    serializedVersion: 2
    m_Curve:
    - time: 0
      value: 1
      inSlope: 0
      outSlope: 0
      tangentMode: 0
    m_PreInfinity: 2
    m_PostInfinity: 2
    m_RotationOrder: 4
  spreadCustomCurve:
    serializedVersion: 2
    m_Curve:
    - time: 0
      value: 0
      inSlope: 0
      outSlope: 0
      tangentMode: 0
    m_PreInfinity: 2
    m_PostInfinity: 2
    m_RotationOrder: 4
  reverbZoneMixCustomCurve:
    serializedVersion: 2
    m_Curve:
    - time: 0
      value: 1
      inSlope: 0
      outSlope: 0
      tangentMode: 0
    m_PreInfinity: 2
    m_PostInfinity: 2
    m_RotationOrder: 4
--- !u!82 &8239016
AudioSource:
  m_ObjectHideFlags: 1
  m_PrefabParentObject: {fileID: 0}
  m_PrefabInternal: {fileID: 100100000}
  m_GameObject: {fileID: 197738}
  m_Enabled: 1
  serializedVersion: 4
  OutputAudioMixerGroup: {fileID: 0}
  m_audioClip: {fileID: 0}
  m_PlayOnAwake: 0
  m_Volume: 1
  m_Pitch: 1
  Loop: 0
  Mute: 0
  Spatialize: 0
  Priority: 128
  DopplerLevel: 1
  MinDistance: 1
  MaxDistance: 500
  Pan2D: 0
  rolloffMode: 0
  BypassEffects: 0
  BypassListenerEffects: 0
  BypassReverbZones: 0
  rolloffCustomCurve:
    serializedVersion: 2
    m_Curve:
    - time: 0
      value: 1
      inSlope: 0
      outSlope: 0
      tangentMode: 0
    - time: 1
      value: 0
      inSlope: 0
      outSlope: 0
      tangentMode: 0
    m_PreInfinity: 2
    m_PostInfinity: 2
    m_RotationOrder: 4
  panLevelCustomCurve:
    serializedVersion: 2
    m_Curve:
    - time: 0
      value: 0
      inSlope: 0
      outSlope: 0
      tangentMode: 0
    m_PreInfinity: 2
    m_PostInfinity: 2
    m_RotationOrder: 4
  spreadCustomCurve:
    serializedVersion: 2
    m_Curve:
    - time: 0
      value: 0
      inSlope: 0
      outSlope: 0
      tangentMode: 0
    m_PreInfinity: 2
    m_PostInfinity: 2
    m_RotationOrder: 4
  reverbZoneMixCustomCurve:
    serializedVersion: 2
    m_Curve:
    - time: 0
      value: 1
      inSlope: 0
      outSlope: 0
      tangentMode: 0
    m_PreInfinity: 2
    m_PostInfinity: 2
    m_RotationOrder: 4
--- !u!82 &8249110
AudioSource:
  m_ObjectHideFlags: 1
  m_PrefabParentObject: {fileID: 0}
  m_PrefabInternal: {fileID: 100100000}
  m_GameObject: {fileID: 186380}
  m_Enabled: 1
  serializedVersion: 4
  OutputAudioMixerGroup: {fileID: 0}
  m_audioClip: {fileID: 0}
  m_PlayOnAwake: 0
  m_Volume: 1
  m_Pitch: 1
  Loop: 0
  Mute: 0
  Spatialize: 0
  Priority: 128
  DopplerLevel: 1
  MinDistance: 1
  MaxDistance: 20
  Pan2D: 0
  rolloffMode: 0
  BypassEffects: 0
  BypassListenerEffects: 0
  BypassReverbZones: 0
  rolloffCustomCurve:
    serializedVersion: 2
    m_Curve:
    - time: 0
      value: 1
      inSlope: 0
      outSlope: 0
      tangentMode: 0
    - time: 1
      value: 0
      inSlope: 0
      outSlope: 0
      tangentMode: 0
    m_PreInfinity: 2
    m_PostInfinity: 2
    m_RotationOrder: 4
  panLevelCustomCurve:
    serializedVersion: 2
    m_Curve:
    - time: 0
      value: 1
      inSlope: 0
      outSlope: 0
      tangentMode: 0
    m_PreInfinity: 2
    m_PostInfinity: 2
    m_RotationOrder: 4
  spreadCustomCurve:
    serializedVersion: 2
    m_Curve:
    - time: 0
      value: 0
      inSlope: 0
      outSlope: 0
      tangentMode: 0
    m_PreInfinity: 2
    m_PostInfinity: 2
    m_RotationOrder: 4
  reverbZoneMixCustomCurve:
    serializedVersion: 2
    m_Curve:
    - time: 0
      value: 1
      inSlope: 0
      outSlope: 0
      tangentMode: 0
    m_PreInfinity: 2
    m_PostInfinity: 2
    m_RotationOrder: 4
--- !u!92 &9245972
Behaviour:
  m_ObjectHideFlags: 1
  m_PrefabParentObject: {fileID: 0}
  m_PrefabInternal: {fileID: 100100000}
  m_GameObject: {fileID: 193804}
  m_Enabled: 1
--- !u!95 &9517152
Animator:
  serializedVersion: 3
  m_ObjectHideFlags: 1
  m_PrefabParentObject: {fileID: 0}
  m_PrefabInternal: {fileID: 100100000}
  m_GameObject: {fileID: 186380}
  m_Enabled: 1
  m_Avatar: {fileID: 9000000, guid: 9ff3ceaf4639ae84d83a0908ee094d12, type: 3}
  m_Controller: {fileID: 9100000, guid: 7ad857f99415daa4da260d2690daa993, type: 2}
  m_CullingMode: 1
  m_UpdateMode: 0
  m_ApplyRootMotion: 0
  m_LinearVelocityBlending: 0
  m_WarningMessage: 
  m_HasTransformHierarchy: 1
  m_AllowConstantClipSamplingOptimization: 1
--- !u!114 &11434040
MonoBehaviour:
  m_ObjectHideFlags: 1
  m_PrefabParentObject: {fileID: 0}
  m_PrefabInternal: {fileID: 100100000}
  m_GameObject: {fileID: 186380}
  m_Enabled: 1
  m_EditorHideFlags: 0
  m_Script: {fileID: 11500000, guid: 7274830c5a6f9e64b9e94ba4ee655939, type: 3}
  m_Name: 
  m_EditorClassIdentifier: 
  canJump: 1
  jumpHeight: 5
  jumpinterval: 1.5
  speed: 2.4
  runspeed: 6
  smoothSpeed: 2
  gravity: 10
  rotateSpeed: 8
  dampTime: 3
  grounded: 0
  myaudiosource: {fileID: 8227220}
  target: {fileID: 436268}
  chest: {fileID: 420738}
  shield: {fileID: 408296}
  weapon: {fileID: 497924}
  lefthandpos: {fileID: 412562}
  righthandpos: {fileID: 406840}
  chestposshield: {fileID: 435042}
  chestposweapon: {fileID: 429676}
  equip1sound: {fileID: 8300000, guid: 5286367a706955f42949cfb6db9fcefe, type: 3}
  wooshsounds:
  - {fileID: 8300000, guid: b262680dee9074d489a152883bf4c2fa, type: 3}
  - {fileID: 8300000, guid: 033f3669240f9424d9440f21b80f88ec, type: 3}
  - {fileID: 8300000, guid: f6c55b892be48964a84b76a6f23036d1, type: 3}
  - {fileID: 8300000, guid: 623f472fc5ebb6549875fc98d623f525, type: 3}
  holster1sound: {fileID: 8300000, guid: 863bd0075c66f264fa8f3557cb7ed179, type: 3}
  mycamera: {fileID: 402902}
--- !u!114 &11434198
MonoBehaviour:
  m_ObjectHideFlags: 1
  m_PrefabParentObject: {fileID: 0}
  m_PrefabInternal: {fileID: 100100000}
  m_GameObject: {fileID: 193804}
  m_Enabled: 1
  m_EditorHideFlags: 0
  m_Script: {fileID: 11500000, guid: b747ea1c7ea57ca4e878343cbcbde03b, type: 3}
  m_Name: 
  m_EditorClassIdentifier: 
  target: {fileID: 484822}
  targetOffset: {x: 0, y: 1.5, z: 0}
  distance: 3
  lineOfSightMask: {}
  closerRadius: 0.2
  closerSnapLag: 0.2
  xSpeed: 200
  ySpeed: 80
  yMinLimit: -20
  yMaxLimit: 80
--- !u!114 &11443344
MonoBehaviour:
  m_ObjectHideFlags: 1
  m_PrefabParentObject: {fileID: 0}
  m_PrefabInternal: {fileID: 100100000}
  m_GameObject: {fileID: 197738}
  m_Enabled: 1
  m_EditorHideFlags: 0
  m_Script: {fileID: 11500000, guid: 14fa0f039f7514441bf437527a52de19, type: 3}
  m_Name: 
  m_EditorClassIdentifier: 
  myAudioSource: {fileID: 8239016}
  sounds:
  - {fileID: 8300000, guid: c032698c34b64484ab0d972cbfb3b611, type: 3}
  - {fileID: 8300000, guid: 2a8ec3adc71c27a4189b1f9c229fd49c, type: 3}
  - {fileID: 8300000, guid: 396cabdbd48a7bd48a4030a28365eb7f, type: 3}
--- !u!114 &11450856
MonoBehaviour:
  m_ObjectHideFlags: 1
  m_PrefabParentObject: {fileID: 0}
  m_PrefabInternal: {fileID: 100100000}
  m_GameObject: {fileID: 186380}
  m_Enabled: 1
  m_EditorHideFlags: 0
  m_Script: {fileID: 11500000, guid: bc99bba037f3052419d7e5b43c516041, type: 3}
  m_Name: 
  m_EditorClassIdentifier: 
  impactPrefab: {fileID: 0}
  mask: {}
  damage: 25
  canattack: 0
--- !u!114 &11457358
MonoBehaviour:
  m_ObjectHideFlags: 1
  m_PrefabParentObject: {fileID: 0}
  m_PrefabInternal: {fileID: 100100000}
  m_GameObject: {fileID: 172270}
  m_Enabled: 1
  m_EditorHideFlags: 0
  m_Script: {fileID: 11500000, guid: bc99bba037f3052419d7e5b43c516041, type: 3}
  m_Name: 
  m_EditorClassIdentifier: 
  impactPrefab: {fileID: 452446, guid: 3f93bcc8ddf42c24f9844ce7848ae145, type: 2}
  mask: {}
  damage: 25
  canattack: 0
--- !u!114 &11481770
MonoBehaviour:
  m_ObjectHideFlags: 1
  m_PrefabParentObject: {fileID: 0}
  m_PrefabInternal: {fileID: 100100000}
  m_GameObject: {fileID: 166226}
  m_Enabled: 1
  m_EditorHideFlags: 0
  m_Script: {fileID: 11500000, guid: 14fa0f039f7514441bf437527a52de19, type: 3}
  m_Name: 
  m_EditorClassIdentifier: 
  myAudioSource: {fileID: 8202356}
  sounds:
  - {fileID: 8300000, guid: 5a31483d77c83454aa72262fd0a8881e, type: 3}
  - {fileID: 8300000, guid: c032698c34b64484ab0d972cbfb3b611, type: 3}
  - {fileID: 8300000, guid: d30be680196031f48881a1054e932eab, type: 3}
--- !u!124 &12453432
Behaviour:
  m_ObjectHideFlags: 1
  m_PrefabParentObject: {fileID: 0}
  m_PrefabInternal: {fileID: 100100000}
  m_GameObject: {fileID: 193804}
  m_Enabled: 1
--- !u!136 &13601080
CapsuleCollider:
  m_ObjectHideFlags: 1
  m_PrefabParentObject: {fileID: 0}
  m_PrefabInternal: {fileID: 100100000}
  m_GameObject: {fileID: 199124}
  m_Material: {fileID: 0}
  m_IsTrigger: 0
  m_Enabled: 1
  m_Radius: 0.15
  m_Height: 0.55
  m_Direction: 2
  m_Center: {x: 0, y: 0.02, z: -0.15}
--- !u!136 &13617144
CapsuleCollider:
  m_ObjectHideFlags: 1
  m_PrefabParentObject: {fileID: 0}
  m_PrefabInternal: {fileID: 100100000}
  m_GameObject: {fileID: 197738}
  m_Material: {fileID: 0}
  m_IsTrigger: 0
  m_Enabled: 1
  m_Radius: 0.05
  m_Height: 0.29
  m_Direction: 2
  m_Center: {x: 0, y: 0, z: 0}
--- !u!136 &13621896
CapsuleCollider:
  m_ObjectHideFlags: 1
  m_PrefabParentObject: {fileID: 0}
  m_PrefabInternal: {fileID: 100100000}
  m_GameObject: {fileID: 103608}
  m_Material: {fileID: 0}
  m_IsTrigger: 0
  m_Enabled: 1
  m_Radius: 0.15
  m_Height: 0.5
  m_Direction: 2
  m_Center: {x: 0, y: 0, z: -0.2}
--- !u!136 &13625172
CapsuleCollider:
  m_ObjectHideFlags: 1
  m_PrefabParentObject: {fileID: 0}
  m_PrefabInternal: {fileID: 100100000}
  m_GameObject: {fileID: 166226}
  m_Material: {fileID: 0}
  m_IsTrigger: 0
  m_Enabled: 1
  m_Radius: 0.05
  m_Height: 0.29
  m_Direction: 2
  m_Center: {x: 0, y: 0, z: 0}
--- !u!136 &13642192
CapsuleCollider:
  m_ObjectHideFlags: 1
  m_PrefabParentObject: {fileID: 0}
  m_PrefabInternal: {fileID: 100100000}
  m_GameObject: {fileID: 189542}
  m_Material: {fileID: 0}
  m_IsTrigger: 0
  m_Enabled: 1
  m_Radius: 0.15
  m_Height: 0.55
  m_Direction: 2
  m_Center: {x: 0, y: 0.02, z: -0.15}
--- !u!136 &13649578
CapsuleCollider:
  m_ObjectHideFlags: 1
  m_PrefabParentObject: {fileID: 0}
  m_PrefabInternal: {fileID: 100100000}
  m_GameObject: {fileID: 151210}
  m_Material: {fileID: 0}
  m_IsTrigger: 0
  m_Enabled: 1
  m_Radius: 0.15
  m_Height: 0.55
  m_Direction: 2
  m_Center: {x: 0, y: 0.02, z: -0.15}
--- !u!136 &13652300
CapsuleCollider:
  m_ObjectHideFlags: 1
  m_PrefabParentObject: {fileID: 0}
  m_PrefabInternal: {fileID: 100100000}
  m_GameObject: {fileID: 102136}
  m_Material: {fileID: 0}
  m_IsTrigger: 0
  m_Enabled: 1
  m_Radius: 0.15
  m_Height: 0.5
  m_Direction: 2
  m_Center: {x: 0, y: 0, z: -0.2}
--- !u!137 &13741612
SkinnedMeshRenderer:
  m_ObjectHideFlags: 1
  m_PrefabParentObject: {fileID: 0}
  m_PrefabInternal: {fileID: 100100000}
  m_GameObject: {fileID: 111224}
  m_Enabled: 1
  m_CastShadows: 1
  m_ReceiveShadows: 1
  m_Materials:
  - {fileID: 2100000, guid: c30d3e6cf19978e4cac67c88e4c31267, type: 2}
  m_SubsetIndices: 
  m_StaticBatchRoot: {fileID: 0}
  m_UseLightProbes: 1
  m_ReflectionProbeUsage: 1
  m_ProbeAnchor: {fileID: 0}
  m_ScaleInLightmap: 1
  m_PreserveUVs: 0
  m_IgnoreNormalsForChartDetection: 0
  m_ImportantGI: 0
  m_MinimumChartSize: 4
  m_AutoUVMaxDistance: 0.5
  m_AutoUVMaxAngle: 89
  m_LightmapParameters: {fileID: 0}
  m_SortingLayerID: 0
  m_SortingOrder: 0
  serializedVersion: 2
  m_Quality: 0
  m_UpdateWhenOffscreen: 0
  m_Mesh: {fileID: 4300006, guid: 9ff3ceaf4639ae84d83a0908ee094d12, type: 3}
  m_Bones:
  - {fileID: 428174}
  m_BlendShapeWeights: []
  m_RootBone: {fileID: 428174}
  m_AABB:
    m_Center: {x: 0, y: 0.7923279, z: 0.041452825}
    m_Extent: {x: 0.49694297, y: 0.5170704, z: 0.2304864}
  m_DirtyAABB: 0
--- !u!137 &13771556
SkinnedMeshRenderer:
  m_ObjectHideFlags: 1
  m_PrefabParentObject: {fileID: 0}
  m_PrefabInternal: {fileID: 100100000}
  m_GameObject: {fileID: 180956}
  m_Enabled: 1
  m_CastShadows: 1
  m_ReceiveShadows: 1
  m_Materials:
  - {fileID: 2100000, guid: c9836d71e7f8ff34b873f1ebf41f27fe, type: 2}
  m_SubsetIndices: 
  m_StaticBatchRoot: {fileID: 0}
  m_UseLightProbes: 1
  m_ReflectionProbeUsage: 1
  m_ProbeAnchor: {fileID: 0}
  m_ScaleInLightmap: 1
  m_PreserveUVs: 0
  m_IgnoreNormalsForChartDetection: 0
  m_ImportantGI: 0
  m_MinimumChartSize: 4
  m_AutoUVMaxDistance: 0.5
  m_AutoUVMaxAngle: 89
  m_LightmapParameters: {fileID: 0}
  m_SortingLayerID: 0
  m_SortingOrder: 0
  serializedVersion: 2
  m_Quality: 0
  m_UpdateWhenOffscreen: 0
  m_Mesh: {fileID: 4300004, guid: 9ff3ceaf4639ae84d83a0908ee094d12, type: 3}
  m_Bones:
  - {fileID: 428174}
  - {fileID: 411024}
  - {fileID: 456058}
  - {fileID: 467778}
  - {fileID: 463988}
  - {fileID: 430092}
  - {fileID: 476438}
  - {fileID: 459826}
  - {fileID: 408386}
  - {fileID: 434580}
  - {fileID: 472348}
  - {fileID: 498846}
  - {fileID: 420738}
  - {fileID: 495050}
  - {fileID: 434086}
  - {fileID: 497458}
  - {fileID: 416470}
  - {fileID: 485878}
  - {fileID: 494748}
  - {fileID: 480936}
  - {fileID: 489758}
  - {fileID: 483224}
  - {fileID: 496814}
  - {fileID: 455306}
  - {fileID: 435448}
  - {fileID: 413502}
  - {fileID: 443774}
  - {fileID: 467082}
  - {fileID: 422108}
  - {fileID: 474390}
  - {fileID: 493768}
  - {fileID: 451868}
  - {fileID: 481744}
  - {fileID: 439224}
  - {fileID: 474936}
  - {fileID: 411176}
  - {fileID: 460936}
  - {fileID: 429292}
  - {fileID: 442324}
  - {fileID: 499850}
  - {fileID: 485828}
  - {fileID: 451308}
  - {fileID: 431842}
  - {fileID: 450336}
  - {fileID: 444970}
  - {fileID: 470404}
  - {fileID: 433524}
  - {fileID: 471546}
  - {fileID: 466546}
  - {fileID: 405418}
  - {fileID: 476416}
  - {fileID: 437082}
  - {fileID: 457040}
  - {fileID: 438506}
  - {fileID: 487456}
  - {fileID: 420140}
  - {fileID: 484488}
  - {fileID: 403798}
  - {fileID: 469038}
  - {fileID: 499044}
  - {fileID: 412744}
  - {fileID: 402708}
  - {fileID: 447440}
  - {fileID: 469912}
  m_BlendShapeWeights: []
  m_RootBone: {fileID: 428174}
  m_AABB:
    m_Center: {x: -0.010086805, y: -0.007636279, z: 0.06037116}
    m_Extent: {x: 0.42475244, y: 0.25902373, z: 1.0538667}
  m_DirtyAABB: 0
--- !u!143 &14368950
CharacterController:
  m_ObjectHideFlags: 1
  m_PrefabParentObject: {fileID: 0}
  m_PrefabInternal: {fileID: 100100000}
  m_GameObject: {fileID: 186380}
  m_Material: {fileID: 0}
  m_IsTrigger: 0
  m_Enabled: 1
  serializedVersion: 2
  m_Height: 2
  m_Radius: 0.5
  m_SlopeLimit: 50
  m_StepOffset: 0.3
  m_SkinWidth: 0.08
  m_MinMoveDistance: 0.001
  m_Center: {x: 0, y: 1.05, z: 0}
--- !u!183 &18374002
Cloth:
  m_ObjectHideFlags: 1
  m_PrefabParentObject: {fileID: 0}
  m_PrefabInternal: {fileID: 100100000}
  m_GameObject: {fileID: 111224}
  m_Enabled: 1
  m_StretchingStiffness: 1
  m_BendingStiffness: 0.51
  m_UseTethers: 1
  m_UseGravity: 1
  m_Damping: 0.15
  m_ExternalAcceleration: {x: 0, y: 0, z: 0}
  m_RandomAcceleration: {x: 0, y: 0, z: 0}
  m_WorldVelocityScale: 0.5
  m_WorldAccelerationScale: 1
  m_Friction: 0.5
  m_CollisionMassScale: 0
  m_UseContinuousCollision: 1
  m_UseVirtualParticles: 1
  m_SolverFrequency: 120
  m_SleepThreshold: 0.31
  m_Coefficients:
  - maxDistance: 3.4028235e+38
    collisionSphereDistance: 3.4028235e+38
  - maxDistance: 3.4028235e+38
    collisionSphereDistance: 3.4028235e+38
  - maxDistance: 3.4028235e+38
    collisionSphereDistance: 3.4028235e+38
  - maxDistance: 3.4028235e+38
    collisionSphereDistance: 3.4028235e+38
  - maxDistance: 3.4028235e+38
    collisionSphereDistance: 3.4028235e+38
  - maxDistance: 3.4028235e+38
    collisionSphereDistance: 3.4028235e+38
  - maxDistance: 3.4028235e+38
    collisionSphereDistance: 3.4028235e+38
  - maxDistance: 3.4028235e+38
    collisionSphereDistance: 3.4028235e+38
  - maxDistance: 3.4028235e+38
    collisionSphereDistance: 3.4028235e+38
  - maxDistance: 3.4028235e+38
    collisionSphereDistance: 3.4028235e+38
  - maxDistance: 3.4028235e+38
    collisionSphereDistance: 3.4028235e+38
  - maxDistance: 3.4028235e+38
    collisionSphereDistance: 3.4028235e+38
  - maxDistance: 3.4028235e+38
    collisionSphereDistance: 3.4028235e+38
  - maxDistance: 3.4028235e+38
    collisionSphereDistance: 3.4028235e+38
  - maxDistance: 3.4028235e+38
    collisionSphereDistance: 3.4028235e+38
  - maxDistance: 3.4028235e+38
    collisionSphereDistance: 3.4028235e+38
  - maxDistance: 3.4028235e+38
    collisionSphereDistance: 3.4028235e+38
  - maxDistance: 3.4028235e+38
    collisionSphereDistance: 3.4028235e+38
  - maxDistance: 3.4028235e+38
    collisionSphereDistance: 3.4028235e+38
  - maxDistance: 3.4028235e+38
    collisionSphereDistance: 3.4028235e+38
  - maxDistance: 3.4028235e+38
    collisionSphereDistance: 3.4028235e+38
  - maxDistance: 3.4028235e+38
    collisionSphereDistance: 3.4028235e+38
  - maxDistance: 3.4028235e+38
    collisionSphereDistance: 3.4028235e+38
  - maxDistance: 3.4028235e+38
    collisionSphereDistance: 3.4028235e+38
  - maxDistance: 3.4028235e+38
    collisionSphereDistance: 3.4028235e+38
  - maxDistance: 3.4028235e+38
    collisionSphereDistance: 3.4028235e+38
  - maxDistance: 3.4028235e+38
    collisionSphereDistance: 3.4028235e+38
  - maxDistance: 3.4028235e+38
    collisionSphereDistance: 3.4028235e+38
  - maxDistance: 3.4028235e+38
    collisionSphereDistance: 3.4028235e+38
  - maxDistance: 3.4028235e+38
    collisionSphereDistance: 3.4028235e+38
  - maxDistance: 3.4028235e+38
    collisionSphereDistance: 3.4028235e+38
  - maxDistance: 3.4028235e+38
    collisionSphereDistance: 3.4028235e+38
  - maxDistance: 3.4028235e+38
    collisionSphereDistance: 3.4028235e+38
  - maxDistance: 3.4028235e+38
    collisionSphereDistance: 3.4028235e+38
  - maxDistance: 3.4028235e+38
    collisionSphereDistance: 3.4028235e+38
  - maxDistance: 3.4028235e+38
    collisionSphereDistance: 3.4028235e+38
  - maxDistance: 3.4028235e+38
    collisionSphereDistance: 3.4028235e+38
  - maxDistance: 3.4028235e+38
    collisionSphereDistance: 3.4028235e+38
  - maxDistance: 3.4028235e+38
    collisionSphereDistance: 3.4028235e+38
  - maxDistance: 3.4028235e+38
    collisionSphereDistance: 3.4028235e+38
  - maxDistance: 3.4028235e+38
    collisionSphereDistance: 3.4028235e+38
  - maxDistance: 3.4028235e+38
    collisionSphereDistance: 3.4028235e+38
  - maxDistance: 3.4028235e+38
    collisionSphereDistance: 3.4028235e+38
  - maxDistance: 3.4028235e+38
    collisionSphereDistance: 3.4028235e+38
  - maxDistance: 3.4028235e+38
    collisionSphereDistance: 3.4028235e+38
  - maxDistance: 3.4028235e+38
    collisionSphereDistance: 3.4028235e+38
  - maxDistance: 3.4028235e+38
    collisionSphereDistance: 3.4028235e+38
  - maxDistance: 3.4028235e+38
    collisionSphereDistance: 3.4028235e+38
  - maxDistance: 3.4028235e+38
    collisionSphereDistance: 3.4028235e+38
  - maxDistance: 3.4028235e+38
    collisionSphereDistance: 3.4028235e+38
  - maxDistance: 3.4028235e+38
    collisionSphereDistance: 3.4028235e+38
  - maxDistance: 3.4028235e+38
    collisionSphereDistance: 3.4028235e+38
  - maxDistance: 3.4028235e+38
    collisionSphereDistance: 3.4028235e+38
  - maxDistance: 0.2
    collisionSphereDistance: 3.4028235e+38
  - maxDistance: 3.4028235e+38
    collisionSphereDistance: 3.4028235e+38
  - maxDistance: 0.2
    collisionSphereDistance: 3.4028235e+38
  - maxDistance: 0
    collisionSphereDistance: 3.4028235e+38
  - maxDistance: 0
    collisionSphereDistance: 3.4028235e+38
  - maxDistance: 0
    collisionSphereDistance: 3.4028235e+38
  - maxDistance: 0
    collisionSphereDistance: 3.4028235e+38
  - maxDistance: 0
    collisionSphereDistance: 3.4028235e+38
  - maxDistance: 0
    collisionSphereDistance: 3.4028235e+38
  - maxDistance: 0
    collisionSphereDistance: 3.4028235e+38
  - maxDistance: 0
    collisionSphereDistance: 3.4028235e+38
  - maxDistance: 0
    collisionSphereDistance: 3.4028235e+38
  - maxDistance: 0
    collisionSphereDistance: 3.4028235e+38
  - maxDistance: 0
    collisionSphereDistance: 3.4028235e+38
  - maxDistance: 0
    collisionSphereDistance: 3.4028235e+38
  - maxDistance: 0
    collisionSphereDistance: 3.4028235e+38
  - maxDistance: 0
    collisionSphereDistance: 3.4028235e+38
  - maxDistance: 0
    collisionSphereDistance: 3.4028235e+38
  - maxDistance: 0
    collisionSphereDistance: 3.4028235e+38
  - maxDistance: 0
    collisionSphereDistance: 3.4028235e+38
  - maxDistance: 0
    collisionSphereDistance: 3.4028235e+38
  - maxDistance: 0
    collisionSphereDistance: 3.4028235e+38
  - maxDistance: 0
    collisionSphereDistance: 3.4028235e+38
  - maxDistance: 0
    collisionSphereDistance: 3.4028235e+38
  - maxDistance: 0
    collisionSphereDistance: 3.4028235e+38
  - maxDistance: 0
    collisionSphereDistance: 3.4028235e+38
  - maxDistance: 0
    collisionSphereDistance: 3.4028235e+38
  - maxDistance: 0
    collisionSphereDistance: 3.4028235e+38
  - maxDistance: 0
    collisionSphereDistance: 3.4028235e+38
  - maxDistance: 0
    collisionSphereDistance: 3.4028235e+38
  - maxDistance: 0.2
    collisionSphereDistance: 3.4028235e+38
  - maxDistance: 0.2
    collisionSphereDistance: 3.4028235e+38
  - maxDistance: 0.2
    collisionSphereDistance: 3.4028235e+38
  - maxDistance: 3.4028235e+38
    collisionSphereDistance: 3.4028235e+38
  - maxDistance: 3.4028235e+38
    collisionSphereDistance: 3.4028235e+38
  - maxDistance: 3.4028235e+38
    collisionSphereDistance: 3.4028235e+38
  - maxDistance: 3.4028235e+38
    collisionSphereDistance: 3.4028235e+38
  - maxDistance: 3.4028235e+38
    collisionSphereDistance: 3.4028235e+38
  - maxDistance: 3.4028235e+38
    collisionSphereDistance: 3.4028235e+38
  - maxDistance: 3.4028235e+38
    collisionSphereDistance: 3.4028235e+38
  - maxDistance: 3.4028235e+38
    collisionSphereDistance: 3.4028235e+38
  - maxDistance: 3.4028235e+38
    collisionSphereDistance: 3.4028235e+38
  - maxDistance: 0.2
    collisionSphereDistance: 3.4028235e+38
  - maxDistance: 0.2
    collisionSphereDistance: 3.4028235e+38
  - maxDistance: 0
    collisionSphereDistance: 3.4028235e+38
  - maxDistance: 0
    collisionSphereDistance: 3.4028235e+38
  - maxDistance: 0
    collisionSphereDistance: 3.4028235e+38
  - maxDistance: 0
    collisionSphereDistance: 3.4028235e+38
  - maxDistance: 0
    collisionSphereDistance: 3.4028235e+38
  - maxDistance: 0
    collisionSphereDistance: 3.4028235e+38
  - maxDistance: 0
    collisionSphereDistance: 3.4028235e+38
  - maxDistance: 0
    collisionSphereDistance: 3.4028235e+38
  - maxDistance: 0
    collisionSphereDistance: 3.4028235e+38
  - maxDistance: 0.2
    collisionSphereDistance: 3.4028235e+38
  - maxDistance: 0
    collisionSphereDistance: 3.4028235e+38
  - maxDistance: 0.2
    collisionSphereDistance: 3.4028235e+38
  - maxDistance: 0.2
    collisionSphereDistance: 3.4028235e+38
  - maxDistance: 3.4028235e+38
    collisionSphereDistance: 3.4028235e+38
  - maxDistance: 3.4028235e+38
    collisionSphereDistance: 3.4028235e+38
  - maxDistance: 0
    collisionSphereDistance: 3.4028235e+38
  - maxDistance: 3.4028235e+38
    collisionSphereDistance: 3.4028235e+38
  - maxDistance: 3.4028235e+38
    collisionSphereDistance: 3.4028235e+38
  - maxDistance: 0.2
    collisionSphereDistance: 3.4028235e+38
  - maxDistance: 0.2
    collisionSphereDistance: 3.4028235e+38
  - maxDistance: 0
    collisionSphereDistance: 3.4028235e+38
  - maxDistance: 0.2
    collisionSphereDistance: 3.4028235e+38
  - maxDistance: 3.4028235e+38
    collisionSphereDistance: 3.4028235e+38
  - maxDistance: 3.4028235e+38
    collisionSphereDistance: 3.4028235e+38
  - maxDistance: 0.2
    collisionSphereDistance: 3.4028235e+38
  - maxDistance: 0
    collisionSphereDistance: 3.4028235e+38
  - maxDistance: 3.4028235e+38
    collisionSphereDistance: 3.4028235e+38
  - maxDistance: 3.4028235e+38
    collisionSphereDistance: 3.4028235e+38
  - maxDistance: 3.4028235e+38
    collisionSphereDistance: 3.4028235e+38
  - maxDistance: 3.4028235e+38
    collisionSphereDistance: 3.4028235e+38
  - maxDistance: 3.4028235e+38
    collisionSphereDistance: 3.4028235e+38
  - maxDistance: 3.4028235e+38
    collisionSphereDistance: 3.4028235e+38
  - maxDistance: 3.4028235e+38
    collisionSphereDistance: 3.4028235e+38
  - maxDistance: 3.4028235e+38
    collisionSphereDistance: 3.4028235e+38
  - maxDistance: 3.4028235e+38
    collisionSphereDistance: 3.4028235e+38
  - maxDistance: 3.4028235e+38
    collisionSphereDistance: 3.4028235e+38
  - maxDistance: 3.4028235e+38
    collisionSphereDistance: 3.4028235e+38
  - maxDistance: 3.4028235e+38
    collisionSphereDistance: 3.4028235e+38
  - maxDistance: 3.4028235e+38
    collisionSphereDistance: 3.4028235e+38
  - maxDistance: 3.4028235e+38
    collisionSphereDistance: 3.4028235e+38
  - maxDistance: 3.4028235e+38
    collisionSphereDistance: 3.4028235e+38
  - maxDistance: 3.4028235e+38
    collisionSphereDistance: 3.4028235e+38
  - maxDistance: 3.4028235e+38
    collisionSphereDistance: 3.4028235e+38
  - maxDistance: 3.4028235e+38
    collisionSphereDistance: 3.4028235e+38
  - maxDistance: 3.4028235e+38
    collisionSphereDistance: 3.4028235e+38
  - maxDistance: 3.4028235e+38
    collisionSphereDistance: 3.4028235e+38
  - maxDistance: 3.4028235e+38
    collisionSphereDistance: 3.4028235e+38
  - maxDistance: 3.4028235e+38
    collisionSphereDistance: 3.4028235e+38
  - maxDistance: 3.4028235e+38
    collisionSphereDistance: 3.4028235e+38
  - maxDistance: 3.4028235e+38
    collisionSphereDistance: 3.4028235e+38
  - maxDistance: 3.4028235e+38
    collisionSphereDistance: 3.4028235e+38
  - maxDistance: 3.4028235e+38
    collisionSphereDistance: 3.4028235e+38
  - maxDistance: 3.4028235e+38
    collisionSphereDistance: 3.4028235e+38
  - maxDistance: 3.4028235e+38
    collisionSphereDistance: 3.4028235e+38
  - maxDistance: 3.4028235e+38
    collisionSphereDistance: 3.4028235e+38
  - maxDistance: 3.4028235e+38
    collisionSphereDistance: 3.4028235e+38
  - maxDistance: 3.4028235e+38
    collisionSphereDistance: 3.4028235e+38
  - maxDistance: 3.4028235e+38
    collisionSphereDistance: 3.4028235e+38
  - maxDistance: 3.4028235e+38
    collisionSphereDistance: 3.4028235e+38
  - maxDistance: 3.4028235e+38
    collisionSphereDistance: 3.4028235e+38
  - maxDistance: 3.4028235e+38
    collisionSphereDistance: 3.4028235e+38
  - maxDistance: 3.4028235e+38
    collisionSphereDistance: 3.4028235e+38
  - maxDistance: 3.4028235e+38
    collisionSphereDistance: 3.4028235e+38
  - maxDistance: 3.4028235e+38
    collisionSphereDistance: 3.4028235e+38
  - maxDistance: 3.4028235e+38
    collisionSphereDistance: 3.4028235e+38
  - maxDistance: 3.4028235e+38
    collisionSphereDistance: 3.4028235e+38
  - maxDistance: 3.4028235e+38
    collisionSphereDistance: 3.4028235e+38
  - maxDistance: 3.4028235e+38
    collisionSphereDistance: 3.4028235e+38
  - maxDistance: 3.4028235e+38
    collisionSphereDistance: 3.4028235e+38
  - maxDistance: 3.4028235e+38
    collisionSphereDistance: 3.4028235e+38
  - maxDistance: 3.4028235e+38
    collisionSphereDistance: 3.4028235e+38
  - maxDistance: 3.4028235e+38
    collisionSphereDistance: 3.4028235e+38
  - maxDistance: 3.4028235e+38
    collisionSphereDistance: 3.4028235e+38
  - maxDistance: 3.4028235e+38
    collisionSphereDistance: 3.4028235e+38
  - maxDistance: 3.4028235e+38
    collisionSphereDistance: 3.4028235e+38
  - maxDistance: 3.4028235e+38
    collisionSphereDistance: 3.4028235e+38
  - maxDistance: 3.4028235e+38
    collisionSphereDistance: 3.4028235e+38
  - maxDistance: 3.4028235e+38
    collisionSphereDistance: 3.4028235e+38
  - maxDistance: 3.4028235e+38
    collisionSphereDistance: 3.4028235e+38
  - maxDistance: 3.4028235e+38
    collisionSphereDistance: 3.4028235e+38
  - maxDistance: 3.4028235e+38
    collisionSphereDistance: 3.4028235e+38
  - maxDistance: 3.4028235e+38
    collisionSphereDistance: 3.4028235e+38
  - maxDistance: 3.4028235e+38
    collisionSphereDistance: 3.4028235e+38
  - maxDistance: 3.4028235e+38
    collisionSphereDistance: 3.4028235e+38
  - maxDistance: 3.4028235e+38
    collisionSphereDistance: 3.4028235e+38
  - maxDistance: 3.4028235e+38
    collisionSphereDistance: 3.4028235e+38
  - maxDistance: 3.4028235e+38
    collisionSphereDistance: 3.4028235e+38
  - maxDistance: 3.4028235e+38
    collisionSphereDistance: 3.4028235e+38
  - maxDistance: 3.4028235e+38
    collisionSphereDistance: 3.4028235e+38
  - maxDistance: 3.4028235e+38
    collisionSphereDistance: 3.4028235e+38
  - maxDistance: 3.4028235e+38
    collisionSphereDistance: 3.4028235e+38
  - maxDistance: 3.4028235e+38
    collisionSphereDistance: 3.4028235e+38
  - maxDistance: 3.4028235e+38
    collisionSphereDistance: 3.4028235e+38
  - maxDistance: 3.4028235e+38
    collisionSphereDistance: 3.4028235e+38
  - maxDistance: 3.4028235e+38
    collisionSphereDistance: 3.4028235e+38
  - maxDistance: 3.4028235e+38
    collisionSphereDistance: 3.4028235e+38
  - maxDistance: 3.4028235e+38
    collisionSphereDistance: 3.4028235e+38
  - maxDistance: 3.4028235e+38
    collisionSphereDistance: 3.4028235e+38
  - maxDistance: 3.4028235e+38
    collisionSphereDistance: 3.4028235e+38
  - maxDistance: 3.4028235e+38
    collisionSphereDistance: 3.4028235e+38
  - maxDistance: 0.2
    collisionSphereDistance: 3.4028235e+38
  - maxDistance: 0.2
    collisionSphereDistance: 3.4028235e+38
  - maxDistance: 0.2
    collisionSphereDistance: 3.4028235e+38
  - maxDistance: 0
    collisionSphereDistance: 3.4028235e+38
  - maxDistance: 0
    collisionSphereDistance: 3.4028235e+38
  - maxDistance: 0
    collisionSphereDistance: 3.4028235e+38
  - maxDistance: 0
    collisionSphereDistance: 3.4028235e+38
  - maxDistance: 0
    collisionSphereDistance: 3.4028235e+38
  - maxDistance: 0
    collisionSphereDistance: 3.4028235e+38
  - maxDistance: 0
    collisionSphereDistance: 3.4028235e+38
  - maxDistance: 0
    collisionSphereDistance: 3.4028235e+38
  - maxDistance: 0
    collisionSphereDistance: 3.4028235e+38
  - maxDistance: 0
    collisionSphereDistance: 3.4028235e+38
  - maxDistance: 0
    collisionSphereDistance: 3.4028235e+38
  - maxDistance: 0.2
    collisionSphereDistance: 3.4028235e+38
  - maxDistance: 0.2
    collisionSphereDistance: 3.4028235e+38
  - maxDistance: 0.2
    collisionSphereDistance: 3.4028235e+38
  - maxDistance: 0.2
    collisionSphereDistance: 3.4028235e+38
  - maxDistance: 0
    collisionSphereDistance: 3.4028235e+38
  - maxDistance: 0
    collisionSphereDistance: 3.4028235e+38
  - maxDistance: 0
    collisionSphereDistance: 3.4028235e+38
  - maxDistance: 0
    collisionSphereDistance: 3.4028235e+38
  - maxDistance: 0
    collisionSphereDistance: 3.4028235e+38
  - maxDistance: 0
    collisionSphereDistance: 3.4028235e+38
  - maxDistance: 0
    collisionSphereDistance: 3.4028235e+38
  - maxDistance: 0
    collisionSphereDistance: 3.4028235e+38
  - maxDistance: 0
    collisionSphereDistance: 3.4028235e+38
  - maxDistance: 0
    collisionSphereDistance: 3.4028235e+38
  - maxDistance: 0
    collisionSphereDistance: 3.4028235e+38
  - maxDistance: 3.4028235e+38
    collisionSphereDistance: 3.4028235e+38
  - maxDistance: 3.4028235e+38
    collisionSphereDistance: 3.4028235e+38
  - maxDistance: 3.4028235e+38
    collisionSphereDistance: 3.4028235e+38
  - maxDistance: 3.4028235e+38
    collisionSphereDistance: 3.4028235e+38
  - maxDistance: 3.4028235e+38
    collisionSphereDistance: 3.4028235e+38
  - maxDistance: 3.4028235e+38
    collisionSphereDistance: 3.4028235e+38
  - maxDistance: 3.4028235e+38
    collisionSphereDistance: 3.4028235e+38
  - maxDistance: 3.4028235e+38
    collisionSphereDistance: 3.4028235e+38
  - maxDistance: 3.4028235e+38
    collisionSphereDistance: 3.4028235e+38
  - maxDistance: 3.4028235e+38
    collisionSphereDistance: 3.4028235e+38
  - maxDistance: 3.4028235e+38
    collisionSphereDistance: 3.4028235e+38
  - maxDistance: 3.4028235e+38
    collisionSphereDistance: 3.4028235e+38
  - maxDistance: 3.4028235e+38
    collisionSphereDistance: 3.4028235e+38
  - maxDistance: 3.4028235e+38
    collisionSphereDistance: 3.4028235e+38
  - maxDistance: 3.4028235e+38
    collisionSphereDistance: 3.4028235e+38
  - maxDistance: 3.4028235e+38
    collisionSphereDistance: 3.4028235e+38
  - maxDistance: 3.4028235e+38
    collisionSphereDistance: 3.4028235e+38
  - maxDistance: 3.4028235e+38
    collisionSphereDistance: 3.4028235e+38
  - maxDistance: 0
    collisionSphereDistance: 3.4028235e+38
  - maxDistance: 0
    collisionSphereDistance: 3.4028235e+38
  - maxDistance: 0
    collisionSphereDistance: 3.4028235e+38
  - maxDistance: 0
    collisionSphereDistance: 3.4028235e+38
  - maxDistance: 0.2
    collisionSphereDistance: 3.4028235e+38
  - maxDistance: 0.2
    collisionSphereDistance: 3.4028235e+38
  m_CapsuleColliders:
  - {fileID: 13601080}
  - {fileID: 13652300}
  - {fileID: 13649578}
  - {fileID: 13621896}
  - {fileID: 13642192}
  m_SphereColliders: []
--- !u!1001 &100100000
Prefab:
  m_ObjectHideFlags: 1
  serializedVersion: 2
  m_Modification:
    m_TransformParent: {fileID: 0}
    m_Modifications: []
    m_RemovedComponents: []
  m_ParentPrefab: {fileID: 0}
  m_RootGameObject: {fileID: 107924}
  m_IsPrefabParent: 1
