%YAML 1.1
%TAG !u! tag:unity3d.com,2011:
--- !u!29 &1
SceneSettings:
  m_ObjectHideFlags: 0
  m_PVSData: 
  m_PVSObjectsArray: []
  m_PVSPortalsArray: []
  m_OcclusionBakeSettings:
    smallestOccluder: 5
    smallestHole: 0.25
    backfaceThreshold: 100
--- !u!104 &2
RenderSettings:
  m_ObjectHideFlags: 0
  serializedVersion: 6
  m_Fog: 0
  m_FogColor: {r: 0.5, g: 0.5, b: 0.5, a: 1}
  m_FogMode: 3
  m_FogDensity: 0.01
  m_LinearFogStart: 0
  m_LinearFogEnd: 300
  m_AmbientSkyColor: {r: 0.2, g: 0.2, b: 0.2, a: 1}
  m_AmbientEquatorColor: {r: 0.2, g: 0.2, b: 0.2, a: 1}
  m_AmbientGroundColor: {r: 0.2, g: 0.2, b: 0.2, a: 1}
  m_AmbientIntensity: 1
  m_AmbientMode: 3
  m_SkyboxMaterial: {fileID: 0}
  m_HaloStrength: 0.5
  m_FlareStrength: 1
  m_FlareFadeSpeed: 3
  m_HaloTexture: {fileID: 0}
  m_SpotCookie: {fileID: 10001, guid: 0000000000000000e000000000000000, type: 0}
  m_DefaultReflectionMode: 0
  m_DefaultReflectionResolution: 128
  m_ReflectionBounces: 1
  m_ReflectionIntensity: 1
  m_CustomReflection: {fileID: 0}
  m_Sun: {fileID: 0}
--- !u!157 &4
LightmapSettings:
  m_ObjectHideFlags: 0
  serializedVersion: 6
  m_GIWorkflowMode: 1
  m_LightmapsMode: 1
  m_GISettings:
    serializedVersion: 2
    m_BounceScale: 1
    m_IndirectOutputScale: 1
    m_AlbedoBoost: 1
    m_TemporalCoherenceThreshold: 1
    m_EnvironmentLightingMode: 0
    m_EnableBakedLightmaps: 1
    m_EnableRealtimeLightmaps: 0
  m_LightmapEditorSettings:
    serializedVersion: 3
    m_Resolution: 1
    m_BakeResolution: 50
    m_TextureWidth: 1024
    m_TextureHeight: 1024
    m_AOMaxDistance: 1
    m_Padding: 2
    m_CompAOExponent: 0
    m_LightmapParameters: {fileID: 0}
    m_TextureCompression: 0
    m_FinalGather: 0
    m_FinalGatherRayCount: 1024
    m_ReflectionCompression: 2
  m_LightingDataAsset: {fileID: 0}
  m_RuntimeCPUUsage: 25
--- !u!196 &5
NavMeshSettings:
  serializedVersion: 2
  m_ObjectHideFlags: 0
  m_BuildSettings:
    serializedVersion: 2
    agentRadius: 0.5
    agentHeight: 2
    agentSlope: 45
    agentClimb: 0.4
    ledgeDropHeight: 0
    maxJumpAcrossDistance: 0
    accuratePlacement: 0
    minRegionArea: 2
    cellSize: 0.16666666
    manualCellSize: 0
  m_NavMeshData: {fileID: 0}
--- !u!1 &3156086
GameObject:
  m_ObjectHideFlags: 0
  m_PrefabParentObject: {fileID: 100000, guid: d9d1fbfcf69364ffd8f9c6ade9ce90fe, type: 2}
  m_PrefabInternal: {fileID: 2073518251}
  serializedVersion: 4
  m_Component:
  - 4: {fileID: 3156090}
  - 33: {fileID: 3156089}
  - 23: {fileID: 3156088}
  - 64: {fileID: 3156087}
  m_Layer: 0
  m_Name: cliff
  m_TagString: Untagged
  m_Icon: {fileID: 0}
  m_NavMeshLayer: 0
  m_StaticEditorFlags: 4294967295
  m_IsActive: 1
--- !u!64 &3156087
MeshCollider:
  m_ObjectHideFlags: 0
  m_PrefabParentObject: {fileID: 6400000, guid: d9d1fbfcf69364ffd8f9c6ade9ce90fe,
    type: 2}
  m_PrefabInternal: {fileID: 2073518251}
  m_GameObject: {fileID: 3156086}
  m_Material: {fileID: 0}
  m_IsTrigger: 0
  m_Enabled: 1
  serializedVersion: 2
  m_Convex: 0
  m_Mesh: {fileID: 4300000, guid: c6d85766e2e364d3fba28cab76d9bce5, type: 3}
--- !u!23 &3156088
MeshRenderer:
  m_ObjectHideFlags: 0
  m_PrefabParentObject: {fileID: 2300000, guid: d9d1fbfcf69364ffd8f9c6ade9ce90fe,
    type: 2}
  m_PrefabInternal: {fileID: 2073518251}
  m_GameObject: {fileID: 3156086}
  m_Enabled: 1
  m_CastShadows: 1
  m_ReceiveShadows: 1
  m_Materials:
  - {fileID: 2100000, guid: c25c85fb524f04ea5b7f96dd8eb6cebf, type: 2}
  m_SubsetIndices: 
  m_StaticBatchRoot: {fileID: 0}
  m_UseLightProbes: 0
  m_ReflectionProbeUsage: 1
  m_ProbeAnchor: {fileID: 0}
  m_ScaleInLightmap: 1
  m_PreserveUVs: 0
  m_IgnoreNormalsForChartDetection: 0
  m_ImportantGI: 0
  m_MinimumChartSize: 4
  m_AutoUVMaxDistance: 0.5
  m_AutoUVMaxAngle: 89
  m_LightmapParameters: {fileID: 0}
  m_SortingLayerID: 0
  m_SortingOrder: 0
--- !u!33 &3156089
MeshFilter:
  m_ObjectHideFlags: 0
  m_PrefabParentObject: {fileID: 3300000, guid: d9d1fbfcf69364ffd8f9c6ade9ce90fe,
    type: 2}
  m_PrefabInternal: {fileID: 2073518251}
  m_GameObject: {fileID: 3156086}
  m_Mesh: {fileID: 4300000, guid: f26ba077fc0b44aa98ece4e68647d4e2, type: 3}
--- !u!4 &3156090
Transform:
  m_ObjectHideFlags: 0
  m_PrefabParentObject: {fileID: 400000, guid: d9d1fbfcf69364ffd8f9c6ade9ce90fe, type: 2}
  m_PrefabInternal: {fileID: 2073518251}
  m_GameObject: {fileID: 3156086}
  m_LocalRotation: {x: 0.00000024656546, y: -0.9258375, z: 0.00000010064669, w: -0.37792185}
  m_LocalPosition: {x: -2.9331112, y: 6.89, z: 7.837717}
  m_LocalScale: {x: 1, y: 1, z: 1}
  m_Children: []
  m_Father: {fileID: 0}
  m_RootOrder: 0
--- !u!1 &73819777
GameObject:
  m_ObjectHideFlags: 0
  m_PrefabParentObject: {fileID: 100000, guid: 24be8e1643b8a474fbb57fcda8a1c454, type: 2}
  m_PrefabInternal: {fileID: 1877414533}
  serializedVersion: 4
  m_Component:
  - 4: {fileID: 73819781}
  - 33: {fileID: 73819780}
  - 23: {fileID: 73819779}
  - 64: {fileID: 73819778}
  m_Layer: 0
  m_Name: rock3
  m_TagString: Untagged
  m_Icon: {fileID: 0}
  m_NavMeshLayer: 0
  m_StaticEditorFlags: 4294967295
  m_IsActive: 1
--- !u!64 &73819778
MeshCollider:
  m_ObjectHideFlags: 0
  m_PrefabParentObject: {fileID: 6400000, guid: 24be8e1643b8a474fbb57fcda8a1c454,
    type: 2}
  m_PrefabInternal: {fileID: 1877414533}
  m_GameObject: {fileID: 73819777}
  m_Material: {fileID: 0}
  m_IsTrigger: 0
  m_Enabled: 1
  serializedVersion: 2
  m_Convex: 0
  m_Mesh: {fileID: 4300000, guid: 3ef8684d8b49f4d189bd2824374f328a, type: 3}
--- !u!23 &73819779
MeshRenderer:
  m_ObjectHideFlags: 0
  m_PrefabParentObject: {fileID: 2300000, guid: 24be8e1643b8a474fbb57fcda8a1c454,
    type: 2}
  m_PrefabInternal: {fileID: 1877414533}
  m_GameObject: {fileID: 73819777}
  m_Enabled: 1
  m_CastShadows: 1
  m_ReceiveShadows: 1
  m_Materials:
  - {fileID: 2100000, guid: c25c85fb524f04ea5b7f96dd8eb6cebf, type: 2}
  m_SubsetIndices: 
  m_StaticBatchRoot: {fileID: 0}
  m_UseLightProbes: 0
  m_ReflectionProbeUsage: 1
  m_ProbeAnchor: {fileID: 0}
  m_ScaleInLightmap: 1
  m_PreserveUVs: 0
  m_IgnoreNormalsForChartDetection: 0
  m_ImportantGI: 0
  m_MinimumChartSize: 4
  m_AutoUVMaxDistance: 0.5
  m_AutoUVMaxAngle: 89
  m_LightmapParameters: {fileID: 0}
  m_SortingLayerID: 0
  m_SortingOrder: 0
--- !u!33 &73819780
MeshFilter:
  m_ObjectHideFlags: 0
  m_PrefabParentObject: {fileID: 3300000, guid: 24be8e1643b8a474fbb57fcda8a1c454,
    type: 2}
  m_PrefabInternal: {fileID: 1877414533}
  m_GameObject: {fileID: 73819777}
  m_Mesh: {fileID: 4300000, guid: e776f876d5dea4ac9b419e25457df3ee, type: 3}
--- !u!4 &73819781
Transform:
  m_ObjectHideFlags: 0
  m_PrefabParentObject: {fileID: 400000, guid: 24be8e1643b8a474fbb57fcda8a1c454, type: 2}
  m_PrefabInternal: {fileID: 1877414533}
  m_GameObject: {fileID: 73819777}
  m_LocalRotation: {x: 0.30182403, y: -0.6965677, z: -0.48774207, w: -0.4310493}
  m_LocalPosition: {x: -3.6, y: 11.75, z: 5.89}
  m_LocalScale: {x: 1, y: 1, z: 1}
  m_Children: []
  m_Father: {fileID: 0}
  m_RootOrder: 3
--- !u!1 &85233123
GameObject:
  m_ObjectHideFlags: 0
  m_PrefabParentObject: {fileID: 100000, guid: 84376f2a0948947b5a6dfe814a1100a0, type: 2}
  m_PrefabInternal: {fileID: 800433642}
  serializedVersion: 4
  m_Component:
  - 4: {fileID: 85233127}
  - 33: {fileID: 85233126}
  - 23: {fileID: 85233125}
  - 64: {fileID: 85233124}
  m_Layer: 0
  m_Name: rock4
  m_TagString: Untagged
  m_Icon: {fileID: 0}
  m_NavMeshLayer: 0
  m_StaticEditorFlags: 4294967295
  m_IsActive: 1
--- !u!64 &85233124
MeshCollider:
  m_ObjectHideFlags: 0
  m_PrefabParentObject: {fileID: 6400000, guid: 84376f2a0948947b5a6dfe814a1100a0,
    type: 2}
  m_PrefabInternal: {fileID: 800433642}
  m_GameObject: {fileID: 85233123}
  m_Material: {fileID: 0}
  m_IsTrigger: 0
  m_Enabled: 1
  serializedVersion: 2
  m_Convex: 0
  m_Mesh: {fileID: 4300000, guid: 9551d23f5681244a5bf687feb1b45c62, type: 3}
--- !u!23 &85233125
MeshRenderer:
  m_ObjectHideFlags: 0
  m_PrefabParentObject: {fileID: 2300000, guid: 84376f2a0948947b5a6dfe814a1100a0,
    type: 2}
  m_PrefabInternal: {fileID: 800433642}
  m_GameObject: {fileID: 85233123}
  m_Enabled: 1
  m_CastShadows: 1
  m_ReceiveShadows: 1
  m_Materials:
  - {fileID: 2100000, guid: c25c85fb524f04ea5b7f96dd8eb6cebf, type: 2}
  m_SubsetIndices: 
  m_StaticBatchRoot: {fileID: 0}
  m_UseLightProbes: 0
  m_ReflectionProbeUsage: 1
  m_ProbeAnchor: {fileID: 0}
  m_ScaleInLightmap: 1
  m_PreserveUVs: 0
  m_IgnoreNormalsForChartDetection: 0
  m_ImportantGI: 0
  m_MinimumChartSize: 4
  m_AutoUVMaxDistance: 0.5
  m_AutoUVMaxAngle: 89
  m_LightmapParameters: {fileID: 0}
  m_SortingLayerID: 0
  m_SortingOrder: 0
--- !u!33 &85233126
MeshFilter:
  m_ObjectHideFlags: 0
  m_PrefabParentObject: {fileID: 3300000, guid: 84376f2a0948947b5a6dfe814a1100a0,
    type: 2}
  m_PrefabInternal: {fileID: 800433642}
  m_GameObject: {fileID: 85233123}
  m_Mesh: {fileID: 4300000, guid: 0b7e04496e1704097823924870e74e6d, type: 3}
--- !u!4 &85233127
Transform:
  m_ObjectHideFlags: 0
  m_PrefabParentObject: {fileID: 400000, guid: 84376f2a0948947b5a6dfe814a1100a0, type: 2}
  m_PrefabInternal: {fileID: 800433642}
  m_GameObject: {fileID: 85233123}
  m_LocalRotation: {x: -0.0038480982, y: 0.24722284, z: -0.033243623, w: -0.9683806}
  m_LocalPosition: {x: 3.03, y: 8.08, z: 5.5}
  m_LocalScale: {x: 1, y: 1, z: 1}
  m_Children: []
  m_Father: {fileID: 0}
  m_RootOrder: 4
--- !u!1 &98204239
GameObject:
  m_ObjectHideFlags: 0
  m_PrefabParentObject: {fileID: 0}
  m_PrefabInternal: {fileID: 0}
  serializedVersion: 4
  m_Component:
  - 4: {fileID: 98204241}
  - 108: {fileID: 98204240}
  m_Layer: 0
  m_Name: Directional light
  m_TagString: Untagged
  m_Icon: {fileID: 0}
  m_NavMeshLayer: 0
  m_StaticEditorFlags: 0
  m_IsActive: 1
--- !u!108 &98204240
Light:
  m_ObjectHideFlags: 0
  m_PrefabParentObject: {fileID: 0}
  m_PrefabInternal: {fileID: 0}
  m_GameObject: {fileID: 98204239}
  m_Enabled: 1
  serializedVersion: 6
  m_Type: 1
  m_Color: {r: 1, g: 1, b: 1, a: 1}
  m_Intensity: 1.4
  m_Range: 10
  m_SpotAngle: 30
  m_CookieSize: 10
  m_Shadows:
    m_Type: 0
    m_Resolution: -1
    m_Strength: 1
    m_Bias: 0.05
    m_NormalBias: 0.4
    m_NearPlane: 0.2
  m_Cookie: {fileID: 0}
  m_DrawHalo: 0
  m_Flare: {fileID: 0}
  m_RenderMode: 0
  m_CullingMask:
    serializedVersion: 2
    m_Bits: 4294967295
  m_Lightmapping: 1
  m_BounceIntensity: 1
  m_ShadowRadius: 0
  m_ShadowAngle: 0
  m_AreaSize: {x: 1, y: 1}
--- !u!4 &98204241
Transform:
  m_ObjectHideFlags: 0
  m_PrefabParentObject: {fileID: 0}
  m_PrefabInternal: {fileID: 0}
  m_GameObject: {fileID: 98204239}
  m_LocalRotation: {x: 0.40821794, y: -0.23456973, z: 0.109381676, w: 0.87542605}
  m_LocalPosition: {x: 2.351798, y: 6.4029236, z: 7.1672544}
  m_LocalScale: {x: 1, y: 1, z: 1}
  m_Children:
  - {fileID: 802942458}
  - {fileID: 1891617102}
  m_Father: {fileID: 0}
  m_RootOrder: 1
--- !u!1 &108927313
GameObject:
  m_ObjectHideFlags: 0
  m_PrefabParentObject: {fileID: 100000, guid: 7b5f2f9ea19c74c659ab8ac969280fb2, type: 2}
  m_PrefabInternal: {fileID: 1962195452}
  serializedVersion: 4
  m_Component:
  - 4: {fileID: 108927317}
  - 33: {fileID: 108927316}
  - 23: {fileID: 108927315}
  - 64: {fileID: 108927314}
  m_Layer: 0
  m_Name: rock2
  m_TagString: Untagged
  m_Icon: {fileID: 0}
  m_NavMeshLayer: 0
  m_StaticEditorFlags: 4294967295
  m_IsActive: 1
--- !u!64 &108927314
MeshCollider:
  m_ObjectHideFlags: 0
  m_PrefabParentObject: {fileID: 6400000, guid: 7b5f2f9ea19c74c659ab8ac969280fb2,
    type: 2}
  m_PrefabInternal: {fileID: 1962195452}
  m_GameObject: {fileID: 108927313}
  m_Material: {fileID: 0}
  m_IsTrigger: 0
  m_Enabled: 1
  serializedVersion: 2
  m_Convex: 0
  m_Mesh: {fileID: 4300000, guid: 9fc428eadf2be4fd4bcd7e09ee65c9b6, type: 3}
--- !u!23 &108927315
MeshRenderer:
  m_ObjectHideFlags: 0
  m_PrefabParentObject: {fileID: 2300000, guid: 7b5f2f9ea19c74c659ab8ac969280fb2,
    type: 2}
  m_PrefabInternal: {fileID: 1962195452}
  m_GameObject: {fileID: 108927313}
  m_Enabled: 1
  m_CastShadows: 1
  m_ReceiveShadows: 1
  m_Materials:
  - {fileID: 2100000, guid: c25c85fb524f04ea5b7f96dd8eb6cebf, type: 2}
  m_SubsetIndices: 
  m_StaticBatchRoot: {fileID: 0}
  m_UseLightProbes: 0
  m_ReflectionProbeUsage: 1
  m_ProbeAnchor: {fileID: 0}
  m_ScaleInLightmap: 1
  m_PreserveUVs: 0
  m_IgnoreNormalsForChartDetection: 0
  m_ImportantGI: 0
  m_MinimumChartSize: 4
  m_AutoUVMaxDistance: 0.5
  m_AutoUVMaxAngle: 89
  m_LightmapParameters: {fileID: 0}
  m_SortingLayerID: 0
  m_SortingOrder: 0
--- !u!33 &108927316
MeshFilter:
  m_ObjectHideFlags: 0
  m_PrefabParentObject: {fileID: 3300000, guid: 7b5f2f9ea19c74c659ab8ac969280fb2,
    type: 2}
  m_PrefabInternal: {fileID: 1962195452}
  m_GameObject: {fileID: 108927313}
  m_Mesh: {fileID: 4300000, guid: 2e63748b1771f4d9f85197f8244d4bbd, type: 3}
--- !u!4 &108927317
Transform:
  m_ObjectHideFlags: 0
  m_PrefabParentObject: {fileID: 400000, guid: 7b5f2f9ea19c74c659ab8ac969280fb2, type: 2}
  m_PrefabInternal: {fileID: 1962195452}
  m_GameObject: {fileID: 108927313}
  m_LocalRotation: {x: -0.00000007257976, y: -0.96214664, z: 0.00000025623518, w: -0.27253234}
  m_LocalPosition: {x: 2.6, y: 10.95, z: 5.019097}
  m_LocalScale: {x: 1, y: 1, z: 1}
  m_Children: []
  m_Father: {fileID: 0}
  m_RootOrder: 5
--- !u!1001 &800433642
Prefab:
  m_ObjectHideFlags: 0
  serializedVersion: 2
  m_Modification:
    m_TransformParent: {fileID: 0}
    m_Modifications:
    - target: {fileID: 400000, guid: 84376f2a0948947b5a6dfe814a1100a0, type: 2}
      propertyPath: m_LocalPosition.x
      value: 3.02999997
      objectReference: {fileID: 0}
    - target: {fileID: 400000, guid: 84376f2a0948947b5a6dfe814a1100a0, type: 2}
      propertyPath: m_LocalPosition.y
      value: 8.07999992
      objectReference: {fileID: 0}
    - target: {fileID: 400000, guid: 84376f2a0948947b5a6dfe814a1100a0, type: 2}
      propertyPath: m_LocalPosition.z
      value: 5.5
      objectReference: {fileID: 0}
    - target: {fileID: 400000, guid: 84376f2a0948947b5a6dfe814a1100a0, type: 2}
      propertyPath: m_LocalRotation.x
      value: -.00384809822
      objectReference: {fileID: 0}
    - target: {fileID: 400000, guid: 84376f2a0948947b5a6dfe814a1100a0, type: 2}
      propertyPath: m_LocalRotation.y
      value: .247222841
      objectReference: {fileID: 0}
    - target: {fileID: 400000, guid: 84376f2a0948947b5a6dfe814a1100a0, type: 2}
      propertyPath: m_LocalRotation.z
      value: -.0332436226
      objectReference: {fileID: 0}
    - target: {fileID: 400000, guid: 84376f2a0948947b5a6dfe814a1100a0, type: 2}
      propertyPath: m_LocalRotation.w
      value: -.96838057
      objectReference: {fileID: 0}
    m_RemovedComponents: []
  m_ParentPrefab: {fileID: 100100000, guid: 84376f2a0948947b5a6dfe814a1100a0, type: 2}
  m_RootGameObject: {fileID: 85233123}
  m_IsPrefabParent: 0
--- !u!1 &802942457
GameObject:
  m_ObjectHideFlags: 0
  m_PrefabParentObject: {fileID: 0}
  m_PrefabInternal: {fileID: 0}
  serializedVersion: 4
  m_Component:
  - 4: {fileID: 802942458}
  - 108: {fileID: 802942459}
  m_Layer: 0
  m_Name: Directional light
  m_TagString: Untagged
  m_Icon: {fileID: 0}
  m_NavMeshLayer: 0
  m_StaticEditorFlags: 0
  m_IsActive: 1
--- !u!4 &802942458
Transform:
  m_ObjectHideFlags: 0
  m_PrefabParentObject: {fileID: 0}
  m_PrefabInternal: {fileID: 0}
  m_GameObject: {fileID: 802942457}
  m_LocalRotation: {x: 0.030858051, y: 0.41387957, z: -0.5375761, w: 0.7340051}
  m_LocalPosition: {x: 0, y: 0, z: 0}
  m_LocalScale: {x: 1, y: 1, z: 1}
  m_Children: []
  m_Father: {fileID: 98204241}
  m_RootOrder: 0
--- !u!108 &802942459
Light:
  m_ObjectHideFlags: 0
  m_PrefabParentObject: {fileID: 0}
  m_PrefabInternal: {fileID: 0}
  m_GameObject: {fileID: 802942457}
  m_Enabled: 1
  serializedVersion: 6
  m_Type: 1
  m_Color: {r: 1, g: 1, b: 1, a: 1}
  m_Intensity: 0.6
  m_Range: 10
  m_SpotAngle: 30
  m_CookieSize: 10
  m_Shadows:
    m_Type: 0
    m_Resolution: -1
    m_Strength: 1
    m_Bias: 0.05
    m_NormalBias: 0.4
    m_NearPlane: 0.2
  m_Cookie: {fileID: 0}
  m_DrawHalo: 0
  m_Flare: {fileID: 0}
  m_RenderMode: 0
  m_CullingMask:
    serializedVersion: 2
    m_Bits: 4294967295
  m_Lightmapping: 1
  m_BounceIntensity: 1
  m_ShadowRadius: 0
  m_ShadowAngle: 0
  m_AreaSize: {x: 1, y: 1}
--- !u!1001 &1211949768
Prefab:
  m_ObjectHideFlags: 0
  serializedVersion: 2
  m_Modification:
    m_TransformParent: {fileID: 0}
    m_Modifications:
    - target: {fileID: 400000, guid: a2d308598386f4a0797f87a4b95b9dd1, type: 2}
      propertyPath: m_LocalPosition.x
      value: .047662735
      objectReference: {fileID: 0}
    - target: {fileID: 400000, guid: a2d308598386f4a0797f87a4b95b9dd1, type: 2}
      propertyPath: m_LocalPosition.y
      value: 10.4099998
      objectReference: {fileID: 0}
    - target: {fileID: 400000, guid: a2d308598386f4a0797f87a4b95b9dd1, type: 2}
      propertyPath: m_LocalPosition.z
      value: 3.2946887
      objectReference: {fileID: 0}
    - target: {fileID: 400000, guid: a2d308598386f4a0797f87a4b95b9dd1, type: 2}
      propertyPath: m_LocalRotation.x
      value: -.13452132
      objectReference: {fileID: 0}
    - target: {fileID: 400000, guid: a2d308598386f4a0797f87a4b95b9dd1, type: 2}
      propertyPath: m_LocalRotation.y
      value: -.413260669
      objectReference: {fileID: 0}
    - target: {fileID: 400000, guid: a2d308598386f4a0797f87a4b95b9dd1, type: 2}
      propertyPath: m_LocalRotation.z
      value: .0618728362
      objectReference: {fileID: 0}
    - target: {fileID: 400000, guid: a2d308598386f4a0797f87a4b95b9dd1, type: 2}
      propertyPath: m_LocalRotation.w
      value: -.898493946
      objectReference: {fileID: 0}
    m_RemovedComponents: []
  m_ParentPrefab: {fileID: 100100000, guid: a2d308598386f4a0797f87a4b95b9dd1, type: 2}
  m_RootGameObject: {fileID: 1373264597}
  m_IsPrefabParent: 0
--- !u!1 &1373264597
GameObject:
  m_ObjectHideFlags: 0
  m_PrefabParentObject: {fileID: 100000, guid: a2d308598386f4a0797f87a4b95b9dd1, type: 2}
  m_PrefabInternal: {fileID: 1211949768}
  serializedVersion: 4
  m_Component:
  - 4: {fileID: 1373264601}
  - 33: {fileID: 1373264600}
  - 23: {fileID: 1373264599}
  - 64: {fileID: 1373264598}
  m_Layer: 0
  m_Name: rock1
  m_TagString: Untagged
  m_Icon: {fileID: 0}
  m_NavMeshLayer: 0
  m_StaticEditorFlags: 4294967295
  m_IsActive: 1
--- !u!64 &1373264598
MeshCollider:
  m_ObjectHideFlags: 0
  m_PrefabParentObject: {fileID: 6400000, guid: a2d308598386f4a0797f87a4b95b9dd1,
    type: 2}
  m_PrefabInternal: {fileID: 1211949768}
  m_GameObject: {fileID: 1373264597}
  m_Material: {fileID: 0}
  m_IsTrigger: 0
  m_Enabled: 1
  serializedVersion: 2
  m_Convex: 0
  m_Mesh: {fileID: 4300000, guid: ef4dd147aed784fc2968d63b72857249, type: 3}
--- !u!23 &1373264599
MeshRenderer:
  m_ObjectHideFlags: 0
  m_PrefabParentObject: {fileID: 2300000, guid: a2d308598386f4a0797f87a4b95b9dd1,
    type: 2}
  m_PrefabInternal: {fileID: 1211949768}
  m_GameObject: {fileID: 1373264597}
  m_Enabled: 1
  m_CastShadows: 1
  m_ReceiveShadows: 1
  m_Materials:
  - {fileID: 2100000, guid: c25c85fb524f04ea5b7f96dd8eb6cebf, type: 2}
  m_SubsetIndices: 
  m_StaticBatchRoot: {fileID: 0}
  m_UseLightProbes: 0
  m_ReflectionProbeUsage: 1
  m_ProbeAnchor: {fileID: 0}
  m_ScaleInLightmap: 1
  m_PreserveUVs: 0
  m_IgnoreNormalsForChartDetection: 0
  m_ImportantGI: 0
  m_MinimumChartSize: 4
  m_AutoUVMaxDistance: 0.5
  m_AutoUVMaxAngle: 89
  m_LightmapParameters: {fileID: 0}
  m_SortingLayerID: 0
  m_SortingOrder: 0
--- !u!33 &1373264600
MeshFilter:
  m_ObjectHideFlags: 0
  m_PrefabParentObject: {fileID: 3300000, guid: a2d308598386f4a0797f87a4b95b9dd1,
    type: 2}
  m_PrefabInternal: {fileID: 1211949768}
  m_GameObject: {fileID: 1373264597}
  m_Mesh: {fileID: 4300002, guid: 2ae50551232db43eabe801fa34dc0c42, type: 3}
--- !u!4 &1373264601
Transform:
  m_ObjectHideFlags: 0
  m_PrefabParentObject: {fileID: 400000, guid: a2d308598386f4a0797f87a4b95b9dd1, type: 2}
  m_PrefabInternal: {fileID: 1211949768}
  m_GameObject: {fileID: 1373264597}
  m_LocalRotation: {x: -0.13452132, y: -0.41326067, z: 0.061872836, w: -0.89849395}
  m_LocalPosition: {x: 0.047662735, y: 10.41, z: 3.2946887}
  m_LocalScale: {x: 1, y: 1, z: 1}
  m_Children: []
  m_Father: {fileID: 0}
  m_RootOrder: 6
--- !u!1001 &1877414533
Prefab:
  m_ObjectHideFlags: 0
  serializedVersion: 2
  m_Modification:
    m_TransformParent: {fileID: 0}
    m_Modifications:
    - target: {fileID: 400000, guid: 24be8e1643b8a474fbb57fcda8a1c454, type: 2}
      propertyPath: m_LocalPosition.x
      value: -3.5999999
      objectReference: {fileID: 0}
    - target: {fileID: 400000, guid: 24be8e1643b8a474fbb57fcda8a1c454, type: 2}
      propertyPath: m_LocalPosition.y
      value: 11.75
      objectReference: {fileID: 0}
    - target: {fileID: 400000, guid: 24be8e1643b8a474fbb57fcda8a1c454, type: 2}
      propertyPath: m_LocalPosition.z
      value: 5.88999987
      objectReference: {fileID: 0}
    - target: {fileID: 400000, guid: 24be8e1643b8a474fbb57fcda8a1c454, type: 2}
      propertyPath: m_LocalRotation.x
      value: .301824033
      objectReference: {fileID: 0}
    - target: {fileID: 400000, guid: 24be8e1643b8a474fbb57fcda8a1c454, type: 2}
      propertyPath: m_LocalRotation.y
      value: -.696567714
      objectReference: {fileID: 0}
    - target: {fileID: 400000, guid: 24be8e1643b8a474fbb57fcda8a1c454, type: 2}
      propertyPath: m_LocalRotation.z
      value: -.487742066
      objectReference: {fileID: 0}
    - target: {fileID: 400000, guid: 24be8e1643b8a474fbb57fcda8a1c454, type: 2}
      propertyPath: m_LocalRotation.w
      value: -.431049287
      objectReference: {fileID: 0}
    - target: {fileID: 400000, guid: 24be8e1643b8a474fbb57fcda8a1c454, type: 2}
      propertyPath: m_LocalScale.x
      value: 1
      objectReference: {fileID: 0}
    m_RemovedComponents: []
  m_ParentPrefab: {fileID: 100100000, guid: 24be8e1643b8a474fbb57fcda8a1c454, type: 2}
  m_RootGameObject: {fileID: 73819777}
  m_IsPrefabParent: 0
--- !u!1 &1891617100
GameObject:
  m_ObjectHideFlags: 0
  m_PrefabParentObject: {fileID: 0}
  m_PrefabInternal: {fileID: 0}
  serializedVersion: 4
  m_Component:
  - 4: {fileID: 1891617102}
  - 108: {fileID: 1891617101}
  m_Layer: 0
  m_Name: Directional light
  m_TagString: Untagged
  m_Icon: {fileID: 0}
  m_NavMeshLayer: 0
  m_StaticEditorFlags: 0
  m_IsActive: 1
--- !u!108 &1891617101
Light:
  m_ObjectHideFlags: 0
  m_PrefabParentObject: {fileID: 0}
  m_PrefabInternal: {fileID: 0}
  m_GameObject: {fileID: 1891617100}
  m_Enabled: 1
  serializedVersion: 6
  m_Type: 1
  m_Color: {r: 1, g: 1, b: 1, a: 1}
  m_Intensity: 0.4
  m_Range: 10
  m_SpotAngle: 30
  m_CookieSize: 10
  m_Shadows:
    m_Type: 0
    m_Resolution: -1
    m_Strength: 1
    m_Bias: 0.05
    m_NormalBias: 0.4
    m_NearPlane: 0.2
  m_Cookie: {fileID: 0}
  m_DrawHalo: 0
  m_Flare: {fileID: 0}
  m_RenderMode: 0
  m_CullingMask:
    serializedVersion: 2
    m_Bits: 4294967295
  m_Lightmapping: 1
  m_BounceIntensity: 1
  m_ShadowRadius: 0
  m_ShadowAngle: 0
  m_AreaSize: {x: 1, y: 1}
--- !u!4 &1891617102
Transform:
  m_ObjectHideFlags: 0
  m_PrefabParentObject: {fileID: 0}
  m_PrefabInternal: {fileID: 0}
  m_GameObject: {fileID: 1891617100}
  m_LocalRotation: {x: -0.7358717, y: 0.027948113, z: -0.16833162, w: 0.6552681}
  m_LocalPosition: {x: 0, y: 0, z: 0}
  m_LocalScale: {x: 1, y: 1, z: 1}
  m_Children: []
  m_Father: {fileID: 98204241}
  m_RootOrder: 1
--- !u!1001 &1962195452
Prefab:
  m_ObjectHideFlags: 0
  serializedVersion: 2
  m_Modification:
    m_TransformParent: {fileID: 0}
    m_Modifications:
    - target: {fileID: 400000, guid: 7b5f2f9ea19c74c659ab8ac969280fb2, type: 2}
      propertyPath: m_LocalPosition.x
      value: 2.5999999
      objectReference: {fileID: 0}
    - target: {fileID: 400000, guid: 7b5f2f9ea19c74c659ab8ac969280fb2, type: 2}
      propertyPath: m_LocalPosition.y
      value: 10.9499998
      objectReference: {fileID: 0}
    - target: {fileID: 400000, guid: 7b5f2f9ea19c74c659ab8ac969280fb2, type: 2}
      propertyPath: m_LocalPosition.z
      value: 5.01909685
      objectReference: {fileID: 0}
    - target: {fileID: 400000, guid: 7b5f2f9ea19c74c659ab8ac969280fb2, type: 2}
      propertyPath: m_LocalRotation.x
      value: -7.25797591e-08
      objectReference: {fileID: 0}
    - target: {fileID: 400000, guid: 7b5f2f9ea19c74c659ab8ac969280fb2, type: 2}
      propertyPath: m_LocalRotation.y
      value: -.96214664
      objectReference: {fileID: 0}
    - target: {fileID: 400000, guid: 7b5f2f9ea19c74c659ab8ac969280fb2, type: 2}
      propertyPath: m_LocalRotation.z
      value: 2.56235182e-07
      objectReference: {fileID: 0}
    - target: {fileID: 400000, guid: 7b5f2f9ea19c74c659ab8ac969280fb2, type: 2}
      propertyPath: m_LocalRotation.w
      value: -.272532344
      objectReference: {fileID: 0}
    m_RemovedComponents: []
  m_ParentPrefab: {fileID: 100100000, guid: 7b5f2f9ea19c74c659ab8ac969280fb2, type: 2}
  m_RootGameObject: {fileID: 108927313}
  m_IsPrefabParent: 0
--- !u!1 &2004933234
GameObject:
  m_ObjectHideFlags: 0
  m_PrefabParentObject: {fileID: 0}
  m_PrefabInternal: {fileID: 0}
  serializedVersion: 4
  m_Component:
  - 4: {fileID: 2004933240}
  - 20: {fileID: 2004933239}
  - 92: {fileID: 2004933238}
  - 124: {fileID: 2004933237}
  - 81: {fileID: 2004933236}
  m_Layer: 0
  m_Name: Main Camera
  m_TagString: MainCamera
  m_Icon: {fileID: 0}
  m_NavMeshLayer: 0
  m_StaticEditorFlags: 0
  m_IsActive: 1
--- !u!81 &2004933236
AudioListener:
  m_ObjectHideFlags: 0
  m_PrefabParentObject: {fileID: 0}
  m_PrefabInternal: {fileID: 0}
  m_GameObject: {fileID: 2004933234}
  m_Enabled: 1
--- !u!124 &2004933237
Behaviour:
  m_ObjectHideFlags: 0
  m_PrefabParentObject: {fileID: 0}
  m_PrefabInternal: {fileID: 0}
  m_GameObject: {fileID: 2004933234}
  m_Enabled: 1
--- !u!92 &2004933238
Behaviour:
  m_ObjectHideFlags: 0
  m_PrefabParentObject: {fileID: 0}
  m_PrefabInternal: {fileID: 0}
  m_GameObject: {fileID: 2004933234}
  m_Enabled: 1
--- !u!20 &2004933239
Camera:
  m_ObjectHideFlags: 0
  m_PrefabParentObject: {fileID: 0}
  m_PrefabInternal: {fileID: 0}
  m_GameObject: {fileID: 2004933234}
  m_Enabled: 1
  serializedVersion: 2
  m_ClearFlags: 1
  m_BackGroundColor: {r: 0.5294118, g: 0.5294118, b: 0.5294118, a: 0.019607844}
  m_NormalizedViewPortRect:
    serializedVersion: 2
    x: 0
    y: 0
    width: 1
    height: 1
  near clip plane: 0.3
  far clip plane: 1000
  field of view: 64
  orthographic: 0
  orthographic size: 5
  m_Depth: -1
  m_CullingMask:
    serializedVersion: 2
    m_Bits: 4294967295
  m_RenderingPath: -1
  m_TargetTexture: {fileID: 0}
  m_TargetDisplay: 0
  m_TargetEye: 3
  m_HDR: 0
  m_OcclusionCulling: 1
  m_StereoConvergence: 10
  m_StereoSeparation: 0.022
  m_StereoMirrorMode: 0
--- !u!4 &2004933240
Transform:
  m_ObjectHideFlags: 0
  m_PrefabParentObject: {fileID: 0}
  m_PrefabInternal: {fileID: 0}
  m_GameObject: {fileID: 2004933234}
  m_LocalRotation: {x: 0, y: 0, z: 0, w: 1}
  m_LocalPosition: {x: 0, y: 9.38, z: -0.36969566}
  m_LocalScale: {x: 1, y: 1, z: 1}
  m_Children: []
  m_Father: {fileID: 0}
  m_RootOrder: 2
--- !u!1001 &2073518251
Prefab:
  m_ObjectHideFlags: 0
  serializedVersion: 2
  m_Modification:
    m_TransformParent: {fileID: 0}
    m_Modifications:
    - target: {fileID: 400000, guid: d9d1fbfcf69364ffd8f9c6ade9ce90fe, type: 2}
      propertyPath: m_LocalPosition.x
      value: -2.93311119
      objectReference: {fileID: 0}
    - target: {fileID: 400000, guid: d9d1fbfcf69364ffd8f9c6ade9ce90fe, type: 2}
      propertyPath: m_LocalPosition.y
      value: 6.88999987
      objectReference: {fileID: 0}
    - target: {fileID: 400000, guid: d9d1fbfcf69364ffd8f9c6ade9ce90fe, type: 2}
      propertyPath: m_LocalPosition.z
      value: 7.83771706
      objectReference: {fileID: 0}
    - target: {fileID: 400000, guid: d9d1fbfcf69364ffd8f9c6ade9ce90fe, type: 2}
      propertyPath: m_LocalRotation.x
      value: 2.46565463e-07
      objectReference: {fileID: 0}
    - target: {fileID: 400000, guid: d9d1fbfcf69364ffd8f9c6ade9ce90fe, type: 2}
      propertyPath: m_LocalRotation.y
      value: -.925837517
      objectReference: {fileID: 0}
    - target: {fileID: 400000, guid: d9d1fbfcf69364ffd8f9c6ade9ce90fe, type: 2}
      propertyPath: m_LocalRotation.z
      value: 1.00646687e-07
      objectReference: {fileID: 0}
    - target: {fileID: 400000, guid: d9d1fbfcf69364ffd8f9c6ade9ce90fe, type: 2}
      propertyPath: m_LocalRotation.w
      value: -.377921849
      objectReference: {fileID: 0}
    m_RemovedComponents: []
  m_ParentPrefab: {fileID: 100100000, guid: d9d1fbfcf69364ffd8f9c6ade9ce90fe, type: 2}
  m_RootGameObject: {fileID: 3156086}
  m_IsPrefabParent: 0
